parallelDecoder/simulation/qsim/parallelDecoder.msim.vcd
$comment
	File created using the following command:
		vcd file parallelDecoder.msim.vcd -direction
$end
$date
	Mon Nov  7 12:22:09 2022
$end
$version
	ModelSim Version 2020.1
$end
$timescale
	1ps
$end

$scope module paralleldecoder_vhd_vec_tst $end
$var wire 1 ! M [3] $end
$var wire 1 " M [2] $end
$var wire 1 # M [1] $end
$var wire 1 $ M [0] $end
$var wire 1 % V $end
$var wire 1 & Y [7] $end
$var wire 1 ' Y [6] $end
$var wire 1 ( Y [5] $end
$var wire 1 ) Y [4] $end
$var wire 1 * Y [3] $end
$var wire 1 + Y [2] $end
$var wire 1 , Y [1] $end
$var wire 1 - Y [0] $end

$scope module i1 $end
$var wire 1 . gnd $end
$var wire 1 / vcc $end
$var wire 1 0 unknown $end
$var wire 1 1 devoe $end
$var wire 1 2 devclrn $end
$var wire 1 3 devpor $end
$var wire 1 4 ww_devoe $end
$var wire 1 5 ww_devclrn $end
$var wire 1 6 ww_devpor $end
$var wire 1 7 ww_Y [7] $end
$var wire 1 8 ww_Y [6] $end
$var wire 1 9 ww_Y [5] $end
$var wire 1 : ww_Y [4] $end
$var wire 1 ; ww_Y [3] $end
$var wire 1 < ww_Y [2] $end
$var wire 1 = ww_Y [1] $end
$var wire 1 > ww_Y [0] $end
$var wire 1 ? ww_M [3] $end
$var wire 1 @ ww_M [2] $end
$var wire 1 A ww_M [1] $end
$var wire 1 B ww_M [0] $end
$var wire 1 C ww_V $end
$var wire 1 D \M[0]~output_o\ $end
$var wire 1 E \M[1]~output_o\ $end
$var wire 1 F \M[2]~output_o\ $end
$var wire 1 G \M[3]~output_o\ $end
$var wire 1 H \V~output_o\ $end
$var wire 1 I \Y[4]~input_o\ $end
$var wire 1 J \Y[1]~input_o\ $end
$var wire 1 K \Y[0]~input_o\ $end
$var wire 1 L \d8to12|c11|Y~combout\ $end
$var wire 1 M \Y[5]~input_o\ $end
$var wire 1 N \Y[2]~input_o\ $end
$var wire 1 O \Y[3]~input_o\ $end
$var wire 1 P \d8to12|c12|Y~combout\ $end
$var wire 1 Q \dm1|and13|Y~combout\ $end
$var wire 1 R \Y[7]~input_o\ $end
$var wire 1 S \dm1|orb|Y~2_combout\ $end
$var wire 1 T \Y[6]~input_o\ $end
$var wire 1 U \dm1|orb|Y~combout\ $end
$var wire 1 V \d8to12|c22|Y~combout\ $end
$var wire 1 W \d8to12|c24|Y~combout\ $end
$var wire 1 X \d8to12|c21|Y~combout\ $end
$var wire 1 Y \dm2|orb|Y~0_combout\ $end
$var wire 1 Z \dm2|orb|Y~1_combout\ $end
$var wire 1 [ \d8to12|c31|Y~combout\ $end
$var wire 1 \ \d8to12|c34|Y~combout\ $end
$var wire 1 ] \d8to12|c32|Y~combout\ $end
$var wire 1 ^ \dm3|orb|Y~0_combout\ $end
$var wire 1 _ \dm3|orb|Y~1_combout\ $end
$var wire 1 ` \d8to12|c14|Y~combout\ $end
$var wire 1 a \last|y|Y~combout\ $end
$var wire 1 b \last|orf|Y~0_combout\ $end
$var wire 1 c \d8to12|c33|Y~combout\ $end
$var wire 1 d \dm3|orf|Y~0_combout\ $end
$var wire 1 e \d8to12|c23|Y~combout\ $end
$var wire 1 f \dm2|orf|Y~0_combout\ $end
$var wire 1 g \d8to12|c13|Y~combout\ $end
$var wire 1 h \dm1|orf|Y~0_combout\ $end
$var wire 1 i \valid|Y~0_combout\ $end
$var wire 1 j \valid|Y~combout\ $end
$upscope $end
$upscope $end
$enddefinitions $end
#0
$dumpvars
1%
0.
1/
x0
11
12
13
14
15
16
1C
0D
0E
0F
0G
1H
0I
0J
0K
0L
0M
0N
0O
0P
0Q
0R
0S
0T
0U
0V
0W
0X
0Y
0Z
0[
0\
0]
0^
0_
0`
0a
0b
0c
1d
0e
1f
0g
1h
1i
1j
0&
0'
0(
0)
0*
0+
0,
0-
07
08
09
0:
0;
0<
0=
0>
0?
0@
0A
0B
0!
0"
0#
0$
$end
#20000
1&
1(
1*
1,
1=
1;
19
17
1R
1M
1O
1J
1L
1a
1P
1g
1`
1Q
1S
0h
0i
1U
0a
1i
0j
1j
1D
1B
0H
1$
0C
1H
0%
1C
1%
#40000
0(
0,
1'
1+
0=
1<
09
18
1T
0M
1N
0J
0L
1V
1a
0P
1X
0Q
1W
0g
1Y
0`
1e
0U
0a
1b
1Z
0f
0S
1h
0b
1E
1G
0D
1A
1?
0B
0G
0$
1#
1!
0?
0!
#60000
1(
1,
0&
0*
1=
0;
19
07
0R
1M
0O
1J
1L
1a
1P
1g
1`
1Q
1S
0h
0i
1U
0a
1i
0j
1j
1D
1B
0H
1$
0C
1H
0%
1C
1%
#80000
0,
1&
0+
1)
0=
0<
1:
17
1R
1I
0N
0J
0L
0V
1]
1a
0P
0X
1^
1c
0Q
0Y
1[
0e
0g
0W
1\
0`
0U
0a
1b
1_
0d
0Z
1f
0S
1h
0b
0E
1F
1G
0D
0A
1@
1?
0B
0G
0$
0#
1"
1!
0?
0!
#100000
1,
0&
0(
1*
1=
1;
09
07
0R
0M
1O
1J
1L
1a
1P
1g
1`
1Q
1S
0h
0i
1U
0a
1i
0j
1j
1D
1B
0H
1$
0C
1H
0%
1C
1%
#120000
0,
1(
1+
0'
0=
1<
19
08
0T
1M
1N
0J
0L
1V
1a
0P
1X
0Q
1W
0g
1Y
0`
1e
0U
0a
1b
1Z
0f
0S
1h
0b
1E
1G
0D
1A
1?
0B
0G
0$
1#
1!
0?
0!
#140000
1,
0(
1&
0*
1=
0;
09
17
1R
0M
0O
1J
1L
1a
1P
1g
1`
1Q
1S
0h
0i
1U
0a
1i
0j
1j
1D
1B
0H
1$
0C
1H
0%
1C
1%
#160000
1(
1*
1'
1-
1>
1;
19
18
1T
1M
1O
1K
0L
0X
0[
0P
0V
0\
0Q
0W
0]
0g
0Y
0^
0`
0c
0e
0U
1a
0_
1d
0Z
1f
0S
1h
1b
0E
0F
0D
0A
0@
0B
1G
0$
0#
0"
1?
1!
#180000
0(
0*
0,
0&
0=
0;
09
07
0R
0M
0O
0J
1L
0a
1P
1g
1`
1Q
1S
0h
0i
1U
1a
1i
0j
1j
1D
1B
0H
1$
0C
1H
0%
1C
1%
#200000
1(
1,
0'
0+
1=
0<
19
08
0T
1M
0N
1J
0L
1V
0a
0P
1X
0Q
1W
0g
1Y
0`
1e
0U
1a
0b
1Z
0f
0S
1h
1b
1E
0G
0D
1A
0?
0B
1G
0$
1#
0!
1?
1!
#220000
0(
0,
1*
1&
0=
1;
09
17
1R
0M
1O
0J
1L
0a
1P
1g
1`
1Q
1S
0h
0i
1U
1a
1i
0j
1j
1D
1B
0H
1$
0C
1H
0%
1C
1%
#240000
1,
0&
1+
0)
1=
1<
0:
07
0R
0I
1N
1J
0L
0V
1]
0a
0P
0X
1^
1c
0Q
0Y
1[
0e
0g
0W
1\
0`
0U
1a
0b
1_
0d
0Z
1f
0S
1h
1b
0E
1F
0G
0D
0A
1@
0?
0B
1G
0$
0#
1"
0!
1?
1!
#260000
0,
1&
1(
0*
0=
0;
19
17
1R
1M
0O
0J
1L
0a
1P
1g
1`
1Q
1S
0h
0i
1U
1a
1i
0j
1j
1D
1B
0H
1$
0C
1H
0%
1C
1%
#280000
1,
0(
0+
1'
1=
0<
09
18
1T
0M
0N
1J
0L
1V
0a
0P
1X
0Q
1W
0g
1Y
0`
1e
0U
1a
0b
1Z
0f
0S
1h
1b
1E
0G
0D
1A
0?
0B
1G
0$
1#
0!
1?
1!
#300000
0,
1(
0&
1*
0=
1;
19
07
0R
1M
1O
0J
1L
0a
1P
1g
1`
1Q
1S
0h
0i
1U
1a
1i
0j
1j
1D
1B
0H
1$
0C
1H
0%
1C
1%
#320000
0(
1+
0'
1<
09
08
0T
0M
1N
0P
0X
0Q
0W
0]
0g
0Y
0`
0e
0U
0a
0Z
1f
0S
1h
0E
0D
0A
0B
0$
0#
#340000
1'
18
1T
1Y
0^
1`
0c
1e
0f
0h
0_
0j
0i
0F
0@
0H
0"
0C
0%
