parallelDecoder/simulation/qsim/parallelDecoder.msim.vcd
$comment
	File created using the following command:
		vcd file parallelDecoder.msim.vcd -direction
$end
$date
	Thu Nov 10 11:14:48 2022
$end
$version
	ModelSim Version 2020.1
$end
$timescale
	1ps
$end

$scope module paralleldecoder_vhd_vec_tst $end
$var wire 1 ! M [3] $end
$var wire 1 " M [2] $end
$var wire 1 # M [1] $end
$var wire 1 $ M [0] $end
$var wire 1 % V $end
$var wire 1 & Y [7] $end
$var wire 1 ' Y [6] $end
$var wire 1 ( Y [5] $end
$var wire 1 ) Y [4] $end
$var wire 1 * Y [3] $end
$var wire 1 + Y [2] $end
$var wire 1 , Y [1] $end
$var wire 1 - Y [0] $end

$scope module i1 $end
$var wire 1 . gnd $end
$var wire 1 / vcc $end
$var wire 1 0 unknown $end
$var wire 1 1 devoe $end
$var wire 1 2 devclrn $end
$var wire 1 3 devpor $end
$var wire 1 4 ww_devoe $end
$var wire 1 5 ww_devclrn $end
$var wire 1 6 ww_devpor $end
$var wire 1 7 ww_Y [7] $end
$var wire 1 8 ww_Y [6] $end
$var wire 1 9 ww_Y [5] $end
$var wire 1 : ww_Y [4] $end
$var wire 1 ; ww_Y [3] $end
$var wire 1 < ww_Y [2] $end
$var wire 1 = ww_Y [1] $end
$var wire 1 > ww_Y [0] $end
$var wire 1 ? ww_M [3] $end
$var wire 1 @ ww_M [2] $end
$var wire 1 A ww_M [1] $end
$var wire 1 B ww_M [0] $end
$var wire 1 C ww_V $end
$var wire 1 D \M[0]~output_o\ $end
$var wire 1 E \M[1]~output_o\ $end
$var wire 1 F \M[2]~output_o\ $end
$var wire 1 G \M[3]~output_o\ $end
$var wire 1 H \V~output_o\ $end
$var wire 1 I \Y[2]~input_o\ $end
$var wire 1 J \Y[1]~input_o\ $end
$var wire 1 K \Y[3]~input_o\ $end
$var wire 1 L \Y[0]~input_o\ $end
$var wire 1 M \dm1|and1|Y~combout\ $end
$var wire 1 N \Y[7]~input_o\ $end
$var wire 1 O \Y[6]~input_o\ $end
$var wire 1 P \Y[4]~input_o\ $end
$var wire 1 Q \Y[5]~input_o\ $end
$var wire 1 R \dm1|and0|Y~combout\ $end
$var wire 1 S \dm1|or0|Y~combout\ $end
$var wire 1 T \dm2|and1|Y~combout\ $end
$var wire 1 U \dm2|and0|Y~combout\ $end
$var wire 1 V \dm2|or0|Y~combout\ $end
$var wire 1 W \dm3|and1|Y~combout\ $end
$var wire 1 X \dm3|and0|Y~combout\ $end
$var wire 1 Y \dm3|or0|Y~combout\ $end
$var wire 1 Z \last|or1|Y~combout\ $end
$var wire 1 [ \dm1|nor1|Y~0_combout\ $end
$var wire 1 \ \dm2|nor1|Y~0_combout\ $end
$var wire 1 ] \dm2|nor0|Y~0_combout\ $end
$var wire 1 ^ \dm2|xnr0|Y~combout\ $end
$var wire 1 _ \dm3|nor1|Y~0_combout\ $end
$var wire 1 ` \dm3|nor0|Y~0_combout\ $end
$var wire 1 a \valid|Y~0_combout\ $end
$var wire 1 b \dm1|nor0|Y~0_combout\ $end
$var wire 1 c \valid|Y~1_combout\ $end
$upscope $end
$upscope $end
$enddefinitions $end
#0
$dumpvars
1%
0.
1/
x0
11
12
13
14
15
16
1C
0D
0E
0F
0G
1H
0I
0J
0K
0L
0M
0N
0O
0P
0Q
0R
0S
0T
0U
0V
0W
0X
0Y
0Z
1[
1\
1]
1^
1_
1`
1a
1b
1c
0&
0'
0(
0)
0*
0+
0,
0-
0!
0"
0#
0$
07
08
09
0:
0;
0<
0=
0>
0?
0@
0A
0B
$end
#20000
1&
1(
1*
1,
1=
1;
19
17
1N
1Q
1K
1J
1M
0[
1R
0b
0c
1S
1c
1D
0H
1B
0C
1H
1$
0%
1C
1%
#40000
0(
0,
1'
1+
0=
1<
09
18
1O
0Q
1I
0J
0M
1T
1Z
1[
0\
0R
1U
0]
1b
0c
1V
0Z
0S
1c
1G
1?
0D
0G
1E
0H
1!
0B
0?
1A
0C
1H
0$
1#
0!
0%
1C
1%
#60000
1(
1,
0&
0*
1=
0;
19
07
0N
1Q
0K
1J
1M
0[
1R
0b
0c
1S
1c
1D
0H
1B
0C
1H
1$
0%
1C
1%
#80000
0,
1&
0+
1)
0=
0<
1:
17
1N
1P
0I
0J
0M
0T
1Z
1[
1\
1W
0_
0R
0U
1X
1]
0`
1b
0a
1Y
0c
0V
0Z
0S
1a
1G
1c
1?
0D
0G
0E
0H
1F
1!
0B
0?
0A
0C
1@
0$
0#
1"
0!
0%
1H
1C
1%
#100000
1,
0&
0(
1*
1=
1;
09
07
0N
0Q
1K
1J
1M
0[
1R
0b
0c
1S
1c
1D
0H
1B
0C
1H
1$
0%
1C
1%
#120000
0,
1(
1+
0'
0=
1<
19
08
0O
1Q
1I
0J
0M
1T
1Z
1[
0\
0R
1U
0]
1b
0c
1V
0Z
0S
1c
1G
1?
0D
0G
1E
0H
1!
0B
0?
1A
0C
1H
0$
1#
0!
0%
1C
1%
#140000
1,
0(
1&
0*
1=
0;
09
17
1N
0Q
0K
1J
1M
0[
1R
0b
0c
1S
1c
1D
0H
1B
0C
1H
1$
0%
1C
1%
#160000
1(
1*
1'
1-
1>
1;
19
18
1O
1Q
1K
1L
1Z
0M
0T
1[
1\
0W
1_
0R
0U
0X
1]
1`
1b
0a
0Y
0c
0V
0S
1a
1G
1c
1?
0D
0E
0H
0F
1!
0B
0A
0C
0@
0$
0#
0"
0%
1H
1C
1%
#180000
0(
0*
0,
0&
0=
0;
09
07
0N
0Q
0K
0J
1M
0[
1R
0b
0c
1S
1c
1D
0H
1B
0C
1H
1$
0%
1C
1%
#200000
1(
1,
0'
0+
1=
0<
19
08
0O
1Q
0I
1J
0M
1T
1[
0\
0R
1U
0]
1b
0c
1V
0S
1c
0D
1E
0H
0B
1A
0C
1H
0$
1#
0%
1C
1%
#220000
0(
0,
1*
1&
0=
1;
09
17
1N
0Q
1K
0J
1M
0[
1R
0b
0c
1S
1c
1D
0H
1B
0C
1H
1$
0%
1C
1%
#240000
1,
0&
1+
0)
1=
1<
0:
07
0N
0P
1I
1J
0M
0T
1[
1\
1W
0_
0R
0U
1X
1]
0`
1b
0a
1Y
0c
0V
0S
1a
1c
0D
0E
0H
1F
0B
0A
0C
1@
0$
0#
1"
0%
1H
1C
1%
#260000
0,
1&
1(
0*
0=
0;
19
17
1N
1Q
0K
0J
1M
0[
1R
0b
0c
1S
1c
1D
0H
1B
0C
1H
1$
0%
1C
1%
#280000
1,
0(
0+
1'
1=
0<
09
18
1O
0Q
0I
1J
0M
1T
1[
0\
0R
1U
0]
1b
0c
1V
0S
1c
0D
1E
0H
0B
1A
0C
1H
0$
1#
0%
1C
1%
#300000
0,
1(
0&
1*
0=
1;
19
07
0N
1Q
1K
0J
1M
0[
1R
0b
0c
1S
1c
1D
0H
1B
0C
1H
1$
0%
1C
1%
#320000
0(
1+
0'
1<
09
08
0O
0Q
1I
0M
0T
0W
0R
0U
1]
1b
0c
0V
0S
1c
0D
0E
0H
0B
0A
0C
1H
0$
0#
0%
1C
1%
#340000
1'
18
1O
0X
0]
0b
0c
0^
0Y
0a
0F
0H
0@
0C
0"
0%
