parallelDecoder/simulation/qsim/parallelDecoder.msim.vcd
$comment
	File created using the following command:
		vcd file parallelDecoder.msim.vcd -direction
$end
$date
	Sun Nov  6 17:12:30 2022
$end
$version
	ModelSim Version 2020.1
$end
$timescale
	1ps
$end

$scope module paralleldecoder_vhd_vec_tst $end
$var wire 1 ! M [2] $end
$var wire 1 " M [1] $end
$var wire 1 # M [0] $end
$var wire 1 $ V $end
$var wire 1 % Y [7] $end
$var wire 1 & Y [6] $end
$var wire 1 ' Y [5] $end
$var wire 1 ( Y [4] $end
$var wire 1 ) Y [3] $end
$var wire 1 * Y [2] $end
$var wire 1 + Y [1] $end
$var wire 1 , Y [0] $end

$scope module i1 $end
$var wire 1 - gnd $end
$var wire 1 . vcc $end
$var wire 1 / unknown $end
$var wire 1 0 devoe $end
$var wire 1 1 devclrn $end
$var wire 1 2 devpor $end
$var wire 1 3 ww_devoe $end
$var wire 1 4 ww_devclrn $end
$var wire 1 5 ww_devpor $end
$var wire 1 6 ww_Y [7] $end
$var wire 1 7 ww_Y [6] $end
$var wire 1 8 ww_Y [5] $end
$var wire 1 9 ww_Y [4] $end
$var wire 1 : ww_Y [3] $end
$var wire 1 ; ww_Y [2] $end
$var wire 1 < ww_Y [1] $end
$var wire 1 = ww_Y [0] $end
$var wire 1 > ww_M [2] $end
$var wire 1 ? ww_M [1] $end
$var wire 1 @ ww_M [0] $end
$var wire 1 A ww_V $end
$var wire 1 B \M[0]~output_o\ $end
$var wire 1 C \M[1]~output_o\ $end
$var wire 1 D \M[2]~output_o\ $end
$var wire 1 E \V~output_o\ $end
$var wire 1 F \Y[4]~input_o\ $end
$var wire 1 G \Y[1]~input_o\ $end
$var wire 1 H \Y[0]~input_o\ $end
$var wire 1 I \d8to12|c11|Y~combout\ $end
$var wire 1 J \Y[5]~input_o\ $end
$var wire 1 K \Y[2]~input_o\ $end
$var wire 1 L \Y[3]~input_o\ $end
$var wire 1 M \d8to12|c12|Y~combout\ $end
$var wire 1 N \dm1|orb|Y~0_combout\ $end
$var wire 1 O \Y[7]~input_o\ $end
$var wire 1 P \valid|Y~2_combout\ $end
$var wire 1 Q \Y[6]~input_o\ $end
$var wire 1 R \dm1|orb|Y~combout\ $end
$var wire 1 S \d8to12|c21|Y~combout\ $end
$var wire 1 T \d8to12|c22|Y~combout\ $end
$var wire 1 U \dm2|orb|Y~2_combout\ $end
$var wire 1 V \valid|Y~3_combout\ $end
$var wire 1 W \dm2|orb|Y~combout\ $end
$var wire 1 X \d8to12|c32|Y~combout\ $end
$var wire 1 Y \d8to12|c31|Y~combout\ $end
$var wire 1 Z \dm3|orb|Y~0_combout\ $end
$var wire 1 [ \valid|Y~4_combout\ $end
$var wire 1 \ \dm3|orb|Y~combout\ $end
$var wire 1 ] \d8to12|c14|Y~combout\ $end
$var wire 1 ^ \valid|Y~6_combout\ $end
$var wire 1 _ \d8to12|c24|Y~combout\ $end
$var wire 1 ` \d8to12|c23|Y~combout\ $end
$var wire 1 a \valid|Y~5_combout\ $end
$var wire 1 b \valid|Y~7_combout\ $end
$var wire 1 c \valid|Y~10_combout\ $end
$var wire 1 d \d8to12|c34|Y~combout\ $end
$var wire 1 e \valid|Y~11_combout\ $end
$var wire 1 f \valid|Y~13_combout\ $end
$var wire 1 g \valid|Y~8_combout\ $end
$var wire 1 h \dm1|orb|Y~1_combout\ $end
$var wire 1 i \valid|Y~9_combout\ $end
$var wire 1 j \valid|Y~12_combout\ $end
$upscope $end
$upscope $end
$enddefinitions $end
#0
$dumpvars
1$
0-
1.
x/
10
11
12
13
14
15
1A
0B
0C
0D
1E
0F
0G
0H
0I
0J
0K
0L
0M
0N
0O
0P
0Q
0R
0S
0T
0U
0V
0W
0X
0Y
0Z
0[
0\
0]
0^
0_
0`
1a
1b
1c
0d
1e
0f
1g
0h
1i
1j
0%
0&
0'
0(
0)
0*
0+
0,
0!
0"
0#
06
07
08
09
0:
0;
0<
0=
0>
0?
0@
$end
#20000
1&
1(
1*
1,
1=
1;
19
17
1Q
1F
1K
1H
1I
1M
1]
1N
1P
1R
1h
1B
1@
1#
#40000
0&
0*
1'
1+
1<
0;
18
07
0Q
1J
0K
1G
0I
1T
0M
1S
0P
1^
1_
0]
1`
0h
0^
0R
0b
1U
1V
0N
1W
0j
1b
1j
0B
0@
0E
1C
0#
0A
1?
1E
0$
1"
1A
1$
#60000
1&
1*
0(
0,
0=
1;
09
17
1Q
0F
1K
0H
1I
1M
1]
1N
1P
1R
1h
1B
1@
1#
#80000
0&
1,
0'
1)
1=
1:
08
07
0Q
0J
1L
1H
0I
0S
1Y
0M
0T
1d
0P
1X
1^
0_
0V
0]
0`
0h
0^
0W
0R
0b
1Z
1[
0U
0N
1\
0j
1b
1j
0B
0C
0@
0?
0E
1D
0#
0"
0A
1>
1E
0$
1!
1A
1$
#100000
1&
0,
0*
1(
0=
0;
19
17
1Q
1F
0K
0H
1I
1M
1]
1N
1P
1R
1h
1B
1@
1#
#120000
0&
1*
1'
0+
0<
1;
18
07
0Q
1J
1K
0G
0I
1T
0M
1S
0P
1^
1_
0]
1`
0h
0^
0R
0b
1U
1V
0N
1W
0j
1b
1j
0B
0@
0E
1C
0#
0A
1?
1E
0$
1"
1A
1$
#140000
1&
0*
1,
0(
1=
0;
09
17
1Q
0F
0K
1H
1I
1M
1]
1N
1P
1R
1h
1B
1@
1#
#160000
1*
1(
1+
1%
1<
1;
19
16
1O
1F
1K
1G
0I
0T
0X
0M
0S
0[
1f
0P
0V
0Y
1^
0`
0]
0_
0d
0g
0h
0^
0W
0R
0b
0\
1g
0Z
0f
0U
0N
0i
1i
0j
1b
1j
0D
0B
0C
0>
0@
0?
0E
0#
0"
0!
0A
1E
0$
1A
1$
#180000
0*
0(
0&
0,
0=
0;
09
07
0Q
0F
0K
0H
1I
1M
1]
1N
1P
1R
1h
1B
1@
1#
#200000
1*
1&
0+
0'
0<
1;
08
17
1Q
0J
1K
0G
0I
1T
0M
1S
0P
1^
1_
0]
1`
0h
0^
0R
0b
1U
1V
0N
1W
0j
1b
1j
0B
0@
0E
1C
0#
0A
1?
1E
0$
1"
1A
1$
#220000
0*
0&
1(
1,
1=
0;
19
07
0Q
1F
0K
1H
1I
1M
1]
1N
1P
1R
1h
1B
1@
1#
#240000
1&
0,
1'
0)
0=
0:
18
17
1Q
1J
0L
0H
0I
0S
1Y
0M
0T
1d
0P
1X
1^
0_
0V
0]
0`
0h
0^
0W
0R
0b
1Z
1[
0U
0N
1\
0j
1b
1j
0B
0C
0@
0?
0E
1D
0#
0"
0A
1>
1E
0$
1!
1A
1$
#260000
0&
1,
1*
0(
1=
1;
09
07
0Q
0F
1K
1H
1I
1M
1]
1N
1P
1R
1h
1B
1@
1#
#280000
1&
0*
0'
1+
1<
0;
08
17
1Q
0J
0K
1G
0I
1T
0M
1S
0P
1^
1_
0]
1`
0h
0^
0R
0b
1U
1V
0N
1W
0j
1b
1j
0B
0@
0E
1C
0#
0A
1?
1E
0$
1"
1A
1$
#300000
0&
1*
0,
1(
0=
1;
19
07
0Q
1F
1K
0H
1I
1M
1]
1N
1P
1R
1h
1B
1@
1#
#319000
0*
0(
0+
0%
0<
0;
09
06
0O
0F
0K
0G
0I
0T
0X
0M
0S
0[
1f
0P
0V
0Y
1^
0`
0]
0_
0d
0g
0h
0^
0W
0R
0b
0\
1g
0Z
0f
0U
0N
0i
1i
0j
1b
1j
0D
0B
0C
0>
0@
0?
0E
0#
0"
0!
0A
1E
0$
1A
1$
#320000
1(
1%
1'
19
18
16
1O
1J
1F
1Y
1`
1X
1]
1d
1Z
1f
0g
1\
0i
0j
1D
1>
1!
0E
0A
0$
#340000
0(
0'
1+
1&
1<
09
08
17
1Q
0J
0F
1G
1I
1T
0Y
1_
1[
0]
0f
1g
0[
0e
1U
1W
0c
1i
1C
1?
1"
