parallelDecoder/simulation/qsim/parallelDecoder.msim.vcd
$comment
	File created using the following command:
		vcd file parallelDecoder.msim.vcd -direction
$end
$date
	Tue Nov  8 00:57:39 2022
$end
$version
	ModelSim Version 2020.1
$end
$timescale
	1ps
$end

$scope module paralleldecoder_vhd_vec_tst $end
$var wire 1 ! M [3] $end
$var wire 1 " M [2] $end
$var wire 1 # M [1] $end
$var wire 1 $ M [0] $end
$var wire 1 % V $end
$var wire 1 & Y [7] $end
$var wire 1 ' Y [6] $end
$var wire 1 ( Y [5] $end
$var wire 1 ) Y [4] $end
$var wire 1 * Y [3] $end
$var wire 1 + Y [2] $end
$var wire 1 , Y [1] $end
$var wire 1 - Y [0] $end

$scope module i1 $end
$var wire 1 . gnd $end
$var wire 1 / vcc $end
$var wire 1 0 unknown $end
$var wire 1 1 devoe $end
$var wire 1 2 devclrn $end
$var wire 1 3 devpor $end
$var wire 1 4 ww_devoe $end
$var wire 1 5 ww_devclrn $end
$var wire 1 6 ww_devpor $end
$var wire 1 7 ww_Y [7] $end
$var wire 1 8 ww_Y [6] $end
$var wire 1 9 ww_Y [5] $end
$var wire 1 : ww_Y [4] $end
$var wire 1 ; ww_Y [3] $end
$var wire 1 < ww_Y [2] $end
$var wire 1 = ww_Y [1] $end
$var wire 1 > ww_Y [0] $end
$var wire 1 ? ww_M [3] $end
$var wire 1 @ ww_M [2] $end
$var wire 1 A ww_M [1] $end
$var wire 1 B ww_M [0] $end
$var wire 1 C ww_V $end
$var wire 1 D \M[0]~output_o\ $end
$var wire 1 E \M[1]~output_o\ $end
$var wire 1 F \M[2]~output_o\ $end
$var wire 1 G \M[3]~output_o\ $end
$var wire 1 H \V~output_o\ $end
$var wire 1 I \Y[7]~input_o\ $end
$var wire 1 J \Y[6]~input_o\ $end
$var wire 1 K \d8to12|c14|Y~combout\ $end
$var wire 1 L \Y[0]~input_o\ $end
$var wire 1 M \Y[1]~input_o\ $end
$var wire 1 N \d8to12|c11|Y~combout\ $end
$var wire 1 O \Y[4]~input_o\ $end
$var wire 1 P \Y[5]~input_o\ $end
$var wire 1 Q \dm1|orb|Y~0_combout\ $end
$var wire 1 R \Y[3]~input_o\ $end
$var wire 1 S \Y[2]~input_o\ $end
$var wire 1 T \d8to12|c12|Y~combout\ $end
$var wire 1 U \dm1|orb|Y~1_combout\ $end
$var wire 1 V \d8to12|c21|Y~combout\ $end
$var wire 1 W \dm2|orb|Y~0_combout\ $end
$var wire 1 X \d8to12|c22|Y~combout\ $end
$var wire 1 Y \d8to12|c24|Y~combout\ $end
$var wire 1 Z \dm2|orb|Y~1_combout\ $end
$var wire 1 [ \dm3|orb|Y~0_combout\ $end
$var wire 1 \ \d8to12|c34|Y~combout\ $end
$var wire 1 ] \d8to12|c32|Y~combout\ $end
$var wire 1 ^ \d8to12|c31|Y~combout\ $end
$var wire 1 _ \dm3|orb|Y~1_combout\ $end
$var wire 1 ` \last|or1|Y~combout\ $end
$var wire 1 a \d8to12|c33|Y~combout\ $end
$var wire 1 b \dm3|orf|Y~0_combout\ $end
$var wire 1 c \d8to12|c13|Y~combout\ $end
$var wire 1 d \dm1|orf|Y~0_combout\ $end
$var wire 1 e \d8to12|c23|Y~combout\ $end
$var wire 1 f \dm2|orf|Y~0_combout\ $end
$var wire 1 g \valid|Y~0_combout\ $end
$var wire 1 h \valid|Y~combout\ $end
$upscope $end
$upscope $end
$enddefinitions $end
#0
$dumpvars
1%
0.
1/
x0
11
12
13
14
15
16
1C
0D
0E
0F
0G
1H
0I
0J
0K
0L
0M
0N
0O
0P
0Q
0R
0S
0T
0U
0V
0W
0X
0Y
0Z
0[
0\
0]
0^
0_
0`
0a
1b
0c
1d
0e
1f
1g
1h
0&
0'
0(
0)
0*
0+
0,
0-
0!
0"
0#
0$
07
08
09
0:
0;
0<
0=
0>
0?
0@
0A
0B
$end
#20000
1&
1(
1*
1,
1=
1;
19
17
1I
1P
1R
1M
1N
1T
1Q
1c
1K
1U
0d
1D
1B
1$
#40000
0(
0,
1'
1+
0=
1<
09
18
1J
0P
1S
0M
0N
1X
0T
1V
1`
0Q
1Y
0c
0K
1W
1e
1Z
0f
0U
1d
0`
1G
1?
0D
1E
1!
0B
1A
0G
0$
1#
0?
0!
#60000
1(
1,
0&
0*
1=
0;
19
07
0I
1P
0R
1M
1N
1T
1Q
1c
1K
1U
0d
1D
1B
1$
#80000
0,
1&
0+
1)
0=
0<
1:
17
1I
1O
0S
0M
0N
0X
1]
0T
0V
1[
1`
1a
0Q
0W
1^
0c
0e
0K
0Y
1\
1_
0b
0Z
1f
0U
1d
0`
1G
1?
0D
0E
1F
1!
0B
0A
1@
0G
0$
0#
1"
0?
0!
#100000
1,
0&
0(
1*
1=
1;
09
07
0I
0P
1R
1M
1N
1T
1Q
1c
1K
1U
0d
1D
1B
1$
#120000
0,
1(
1+
0'
0=
1<
19
08
0J
1P
1S
0M
0N
1X
0T
1V
1`
0Q
1Y
0c
0K
1W
1e
1Z
0f
0U
1d
0`
1G
1?
0D
1E
1!
0B
1A
0G
0$
1#
0?
0!
#140000
1,
0(
1&
0*
1=
0;
09
17
1I
0P
0R
1M
1N
1T
1Q
1c
1K
1U
0d
1D
1B
1$
#160000
1(
1*
1'
1-
1>
1;
19
18
1J
1P
1R
1L
0N
0V
0^
1`
0T
0X
0\
0Q
0Y
0]
0c
0K
0W
0[
0a
0e
0_
1b
0Z
1f
0U
1d
1G
1?
0D
0E
0F
1!
0B
0A
0@
0$
0#
0"
#180000
0(
0*
0,
0&
0=
0;
09
07
0I
0P
0R
0M
1N
1T
1Q
1c
1K
1U
0d
1D
1B
1$
#200000
1(
1,
0'
0+
1=
0<
19
08
0J
1P
0S
1M
0N
1X
0T
1V
0Q
1Y
0c
0K
1W
1e
1Z
0f
0U
1d
0D
1E
0B
1A
0$
1#
#220000
0(
0,
1*
1&
0=
1;
09
17
1I
0P
1R
0M
1N
1T
1Q
1c
1K
1U
0d
1D
1B
1$
#240000
1,
0&
1+
0)
1=
1<
0:
07
0I
0O
1S
1M
0N
0X
1]
0T
0V
1[
1a
0Q
0W
1^
0c
0e
0K
0Y
1\
1_
0b
0Z
1f
0U
1d
0D
0E
1F
0B
0A
1@
0$
0#
1"
#260000
0,
1&
1(
0*
0=
0;
19
17
1I
1P
0R
0M
1N
1T
1Q
1c
1K
1U
0d
1D
1B
1$
#280000
1,
0(
0+
1'
1=
0<
09
18
1J
0P
0S
1M
0N
1X
0T
1V
0Q
1Y
0c
0K
1W
1e
1Z
0f
0U
1d
0D
1E
0B
1A
0$
1#
#300000
0,
1(
0&
1*
0=
1;
19
07
0I
1P
1R
0M
1N
1T
1Q
1c
1K
1U
0d
1D
1B
1$
#320000
0(
1+
0'
1<
09
08
0J
0P
1S
0T
0V
0Q
0Y
0]
0c
0K
0W
0e
0Z
1f
0U
1d
0D
0E
0B
0A
0$
0#
#340000
1'
18
1J
1K
1W
0[
0a
1e
0f
0_
0d
0h
0g
0F
0@
0H
0"
0C
0%
