serialEncoder/simulation/qsim/serialEncoder.msim.vcd
$comment
	File created using the following command:
		vcd file serialEncoder.msim.vcd -direction
$end
$date
	Fri Nov 11 18:17:11 2022
$end
$version
	ModelSim Version 2020.1
$end
$timescale
	1ps
$end

$scope module serialencoder_vhd_vec_tst $end
$var wire 1 ! busy $end
$var wire 1 " clk $end
$var wire 1 # kVals [7] $end
$var wire 1 $ kVals [6] $end
$var wire 1 % kVals [5] $end
$var wire 1 & kVals [4] $end
$var wire 1 ' kVals [3] $end
$var wire 1 ( kVals [2] $end
$var wire 1 ) kVals [1] $end
$var wire 1 * kVals [0] $end
$var wire 1 + mIn $end
$var wire 1 , nGRst $end
$var wire 1 - s_controls [2] $end
$var wire 1 . s_controls [1] $end
$var wire 1 / s_controls [0] $end
$var wire 1 0 s_states [2] $end
$var wire 1 1 s_states [1] $end
$var wire 1 2 s_states [0] $end
$var wire 1 3 Y [7] $end
$var wire 1 4 Y [6] $end
$var wire 1 5 Y [5] $end
$var wire 1 6 Y [4] $end
$var wire 1 7 Y [3] $end
$var wire 1 8 Y [2] $end
$var wire 1 9 Y [1] $end
$var wire 1 : Y [0] $end

$scope module i1 $end
$var wire 1 ; gnd $end
$var wire 1 < vcc $end
$var wire 1 = unknown $end
$var wire 1 > devoe $end
$var wire 1 ? devclrn $end
$var wire 1 @ devpor $end
$var wire 1 A ww_devoe $end
$var wire 1 B ww_devclrn $end
$var wire 1 C ww_devpor $end
$var wire 1 D ww_mIn $end
$var wire 1 E ww_nGRst $end
$var wire 1 F ww_clk $end
$var wire 1 G ww_busy $end
$var wire 1 H ww_Y [7] $end
$var wire 1 I ww_Y [6] $end
$var wire 1 J ww_Y [5] $end
$var wire 1 K ww_Y [4] $end
$var wire 1 L ww_Y [3] $end
$var wire 1 M ww_Y [2] $end
$var wire 1 N ww_Y [1] $end
$var wire 1 O ww_Y [0] $end
$var wire 1 P ww_kVals [7] $end
$var wire 1 Q ww_kVals [6] $end
$var wire 1 R ww_kVals [5] $end
$var wire 1 S ww_kVals [4] $end
$var wire 1 T ww_kVals [3] $end
$var wire 1 U ww_kVals [2] $end
$var wire 1 V ww_kVals [1] $end
$var wire 1 W ww_kVals [0] $end
$var wire 1 X ww_s_controls [2] $end
$var wire 1 Y ww_s_controls [1] $end
$var wire 1 Z ww_s_controls [0] $end
$var wire 1 [ ww_s_states [2] $end
$var wire 1 \ ww_s_states [1] $end
$var wire 1 ] ww_s_states [0] $end
$var wire 1 ^ \clk~inputclkctrl_INCLK_bus\ [3] $end
$var wire 1 _ \clk~inputclkctrl_INCLK_bus\ [2] $end
$var wire 1 ` \clk~inputclkctrl_INCLK_bus\ [1] $end
$var wire 1 a \clk~inputclkctrl_INCLK_bus\ [0] $end
$var wire 1 b \con|nord|Y~0clkctrl_INCLK_bus\ [3] $end
$var wire 1 c \con|nord|Y~0clkctrl_INCLK_bus\ [2] $end
$var wire 1 d \con|nord|Y~0clkctrl_INCLK_bus\ [1] $end
$var wire 1 e \con|nord|Y~0clkctrl_INCLK_bus\ [0] $end
$var wire 1 f \busy~output_o\ $end
$var wire 1 g \Y[0]~output_o\ $end
$var wire 1 h \Y[1]~output_o\ $end
$var wire 1 i \Y[2]~output_o\ $end
$var wire 1 j \Y[3]~output_o\ $end
$var wire 1 k \Y[4]~output_o\ $end
$var wire 1 l \Y[5]~output_o\ $end
$var wire 1 m \Y[6]~output_o\ $end
$var wire 1 n \Y[7]~output_o\ $end
$var wire 1 o \kVals[0]~output_o\ $end
$var wire 1 p \kVals[1]~output_o\ $end
$var wire 1 q \kVals[2]~output_o\ $end
$var wire 1 r \kVals[3]~output_o\ $end
$var wire 1 s \kVals[4]~output_o\ $end
$var wire 1 t \kVals[5]~output_o\ $end
$var wire 1 u \kVals[6]~output_o\ $end
$var wire 1 v \kVals[7]~output_o\ $end
$var wire 1 w \s_controls[0]~output_o\ $end
$var wire 1 x \s_controls[1]~output_o\ $end
$var wire 1 y \s_controls[2]~output_o\ $end
$var wire 1 z \s_states[0]~output_o\ $end
$var wire 1 { \s_states[1]~output_o\ $end
$var wire 1 | \s_states[2]~output_o\ $end
$var wire 1 } \clk~input_o\ $end
$var wire 1 ~ \bnc|ff0|Q~0_combout\ $end
$var wire 1 !! \nGRst~input_o\ $end
$var wire 1 "! \con|cMem|prog~8_combout\ $end
$var wire 1 #! \bnc|ff1|Q~q\ $end
$var wire 1 $! \bnc|ff2|Q~0_combout\ $end
$var wire 1 %! \bnc|ff2|Q~q\ $end
$var wire 1 &! \con|nad2|Y~0_combout\ $end
$var wire 1 '! \con|nad2|Y~1_combout\ $end
$var wire 1 (! \bnc|ff0|Q~q\ $end
$var wire 1 )! \con|nord|Y~0_combout\ $end
$var wire 1 *! \con|nord|Y~0clkctrl_outclk\ $end
$var wire 1 +! \clk~inputclkctrl_outclk\ $end
$var wire 1 ,! \mIn~input_o\ $end
$var wire 1 -! \ff0|Q~q\ $end
$var wire 1 .! \con|cMem|prog~0_combout\ $end
$var wire 1 /! \be0|ff0|Q~0_combout\ $end
$var wire 1 0! \be0|ff0|Q~q\ $end
$var wire 1 1! \pr8|ff0|Q~0_combout\ $end
$var wire 1 2! \con|nad4|Y~0_combout\ $end
$var wire 1 3! \con|nad4|Y~1_combout\ $end
$var wire 1 4! \pr8|ff0|Q~q\ $end
$var wire 1 5! \con|cMem|prog~1_combout\ $end
$var wire 1 6! \be1|ff0|Q~0_combout\ $end
$var wire 1 7! \be1|ff0|Q~q\ $end
$var wire 1 8! \pr8|ff1|Q~0_combout\ $end
$var wire 1 9! \pr8|ff1|Q~q\ $end
$var wire 1 :! \con|cMem|prog~2_combout\ $end
$var wire 1 ;! \be2|ff0|Q~0_combout\ $end
$var wire 1 <! \be2|ff0|Q~q\ $end
$var wire 1 =! \pr8|ff2|Q~0_combout\ $end
$var wire 1 >! \pr8|ff2|Q~q\ $end
$var wire 1 ?! \con|cMem|prog~3_combout\ $end
$var wire 1 @! \be3|ff0|Q~0_combout\ $end
$var wire 1 A! \be3|ff0|Q~q\ $end
$var wire 1 B! \pr8|ff3|Q~0_combout\ $end
$var wire 1 C! \pr8|ff3|Q~q\ $end
$var wire 1 D! \con|cMem|prog~4_combout\ $end
$var wire 1 E! \be4|ff0|Q~0_combout\ $end
$var wire 1 F! \be4|ff0|Q~q\ $end
$var wire 1 G! \pr8|ff4|Q~0_combout\ $end
$var wire 1 H! \pr8|ff4|Q~q\ $end
$var wire 1 I! \con|cMem|prog~5_combout\ $end
$var wire 1 J! \be5|ff0|Q~0_combout\ $end
$var wire 1 K! \be5|ff0|Q~q\ $end
$var wire 1 L! \pr8|ff5|Q~0_combout\ $end
$var wire 1 M! \pr8|ff5|Q~q\ $end
$var wire 1 N! \con|cMem|prog~6_combout\ $end
$var wire 1 O! \be6|ff0|Q~0_combout\ $end
$var wire 1 P! \be6|ff0|Q~q\ $end
$var wire 1 Q! \pr8|ff6|Q~0_combout\ $end
$var wire 1 R! \pr8|ff6|Q~q\ $end
$var wire 1 S! \con|cMem|prog~7_combout\ $end
$var wire 1 T! \be7|ff0|Q~0_combout\ $end
$var wire 1 U! \be7|ff0|Q~q\ $end
$var wire 1 V! \pr8|ff7|Q~0_combout\ $end
$var wire 1 W! \pr8|ff7|Q~q\ $end
$var wire 1 X! \con|nord|ALT_INV_Y~0clkctrl_outclk\ $end
$var wire 1 Y! \con|nord|ALT_INV_Y~0_combout\ $end
$var wire 1 Z! \con|nad2|ALT_INV_Y~1_combout\ $end
$var wire 1 [! \con|nad4|ALT_INV_Y~1_combout\ $end
$var wire 1 \! \con|cMem|ALT_INV_prog~3_combout\ $end
$var wire 1 ]! \pr8|ff7|ALT_INV_Q~q\ $end
$var wire 1 ^! \pr8|ff6|ALT_INV_Q~q\ $end
$var wire 1 _! \pr8|ff5|ALT_INV_Q~q\ $end
$var wire 1 `! \pr8|ff4|ALT_INV_Q~q\ $end
$var wire 1 a! \pr8|ff3|ALT_INV_Q~q\ $end
$var wire 1 b! \pr8|ff2|ALT_INV_Q~q\ $end
$var wire 1 c! \pr8|ff1|ALT_INV_Q~q\ $end
$var wire 1 d! \pr8|ff0|ALT_INV_Q~q\ $end
$upscope $end
$upscope $end
$enddefinitions $end
#0
$dumpvars
1!
0"
0+
1,
0;
1<
x=
1>
1?
1@
1A
1B
1C
0D
1E
0F
1G
1f
1g
1h
1i
1j
1k
1l
1m
1n
0o
0p
0q
0r
0s
0t
0u
0v
0w
1x
1y
0z
0{
0|
0}
1~
1!!
0"!
0#!
0$!
0%!
0&!
0'!
0(!
1)!
1*!
0+!
0,!
0-!
0.!
0/!
00!
11!
02!
03!
04!
05!
06!
07!
18!
09!
0:!
0;!
0<!
1=!
0>!
1?!
0@!
0A!
1B!
0C!
0D!
0E!
0F!
1G!
0H!
0I!
0J!
0K!
1L!
0M!
0N!
0O!
0P!
1Q!
0R!
0S!
0T!
0U!
1V!
0W!
0X!
0Y!
1Z!
1[!
0\!
1]!
1^!
1_!
1`!
1a!
1b!
1c!
1d!
13
14
15
16
17
18
19
1:
0#
0$
0%
0&
0'
0(
0)
0*
1-
1.
0/
00
01
02
1H
1I
1J
1K
1L
1M
1N
1O
0P
0Q
0R
0S
0T
0U
0V
0W
1X
1Y
0Z
0[
0\
0]
1b
1c
1d
1e
1^
1_
1`
0a
$end
#10000
1"
1F
1}
1a
1(!
12!
13!
0~
1"!
1.!
02!
1:!
1D!
1N!
1+!
0[!
03!
1z
1[!
1]
1u
1s
1q
1o
12
0x
1Q
1S
1U
1W
0Y
1*
1(
1&
1$
1x
0.
1Y
1.
#20000
0"
0F
0}
0a
0+!
#30000
1"
1F
1}
1a
1#!
0(!
1~
15!
0:!
1I!
0N!
1+!
0z
1{
0]
1\
0u
1t
0q
1p
02
11
0Q
1R
0U
1V
1)
0(
1%
0$
#40000
0"
0F
0}
0a
0+!
#50000
1"
1F
1}
1a
1(!
0~
0"!
1$!
1:!
0?!
0D!
0I!
1+!
1\!
1z
1]
0t
0s
1q
12
1r
0R
0S
1U
1T
1(
0&
0%
1'
#60000
0"
0F
0}
0a
0+!
#70000
1"
1F
1}
1a
0#!
1%!
0(!
1~
1&!
1D!
1I!
1N!
1S!
1+!
0z
1|
0{
0]
1[
0\
1v
1u
1t
1s
02
01
10
1P
1Q
1R
1S
1&
1%
1$
1#
#80000
0"
0F
0}
0a
0+!
#90000
1"
1F
1}
1a
1(!
0~
1"!
0&!
0.!
05!
0:!
1?!
0D!
0I!
0N!
0S!
1+!
0\!
1z
1]
0v
0u
0t
0s
0q
0p
0o
12
0r
0P
0Q
0R
0S
0U
0V
0W
0T
0*
0)
0(
0&
0%
0$
0#
0'
#100000
0"
0F
0}
0a
0)!
1Y!
0e
0+!
0*!
0f
1w
1X!
0G
1Z
0!
14!
19!
1>!
1C!
1H!
1M!
1R!
1W!
1/
0]!
0^!
0_!
0`!
0a!
0b!
0c!
0d!
0g
0h
0i
0j
0k
0l
0m
0n
0O
0N
0M
0L
0K
0J
0I
0H
0:
09
08
07
06
05
04
03
#110000
1"
1F
1}
1a
1#!
0(!
1)!
0Y!
1e
1~
1&!
1+!
1'!
1*!
1f
0z
1{
0Z!
0w
0X!
1G
0]
1\
0#!
0%!
0Z
1!
02
11
0/
0&!
0"!
0$!
0'!
12!
0y
1Z!
13!
0X
0|
0{
0[!
0-
0[
0\
04!
09!
0>!
0C!
0H!
0M!
0R!
0W!
01
00
1y
1]!
1^!
1_!
1`!
1a!
1b!
1c!
1d!
1X
0x
1-
0Y
0.
1g
1h
1i
1j
1k
1l
1m
1n
1O
1N
1M
1L
1K
1J
1I
1H
1:
19
18
17
16
15
14
13
#120000
0"
0F
0}
0a
02!
03!
0+!
1[!
1x
1Y
1.
#130000
1"
1+
1F
1D
1,!
1}
1a
1(!
12!
13!
0~
1"!
1.!
02!
1:!
1D!
1N!
1+!
0[!
03!
1z
1-!
1[!
1]
1u
1s
1q
1o
1/!
1;!
1E!
1O!
12
0x
1Q
1S
1U
1W
0Y
1*
1(
1&
1$
1x
0.
1Y
1.
#140000
0"
0F
0}
0a
0+!
#150000
1"
0+
1F
0D
0,!
1}
1a
1#!
0(!
1~
15!
0:!
1I!
0N!
1+!
0O!
1J!
0;!
16!
0z
1{
0-!
10!
1<!
1F!
1P!
0]
1\
0u
1t
0q
1p
0Q!
0G!
0=!
01!
06!
1;!
0J!
1O!
02
11
0Q
1R
0U
1V
1)
0(
1%
0$
#160000
0"
0F
0}
0a
0+!
#170000
1"
1F
1}
1a
1(!
0~
0"!
1$!
1:!
0?!
0D!
0I!
1+!
1\!
1z
1]
0t
0s
1q
12
1r
0R
0S
1U
1T
1(
0&
0%
1'
#180000
0"
0F
0}
0a
0+!
#190000
1"
1F
1}
1a
0#!
1%!
0(!
1~
1&!
1D!
1I!
1N!
1S!
1+!
0z
1|
0{
0]
1[
0\
1v
1u
1t
1s
02
01
10
1P
1Q
1R
1S
1&
1%
1$
1#
#200000
0"
0F
0}
0a
0+!
#210000
1"
1F
1}
1a
1(!
0~
1"!
0&!
0.!
05!
0:!
1?!
0D!
0I!
0N!
0S!
1+!
0\!
1z
1]
0v
0u
0t
0s
0q
0p
0o
12
0r
0P
0Q
0R
0S
0U
0V
0W
0T
0*
0)
0(
0&
0%
0$
0#
0'
#220000
0"
0F
0}
0a
0)!
1Y!
0e
0+!
0*!
0f
1w
1X!
0G
1Z
0!
19!
1C!
1M!
1W!
1/
0]!
0_!
0a!
0c!
0h
0j
0l
0n
0N
0L
0J
0H
09
07
05
03
#230000
1"
1F
1}
1a
1#!
0(!
1)!
0Y!
1e
1~
1&!
1+!
1'!
1*!
1f
0z
1{
0Z!
0w
0X!
1G
0]
1\
0#!
0%!
00!
0<!
0F!
0P!
0Z
1!
02
11
0/
0O!
1Q!
0E!
1G!
0;!
1=!
0/!
11!
0&!
0"!
0$!
0'!
12!
0y
1Z!
13!
0X
0|
0{
0[!
0-
0[
0\
09!
0C!
0M!
0W!
01
00
1y
1]!
1_!
1a!
1c!
1X
0x
1-
0Y
0.
1h
1j
1l
1n
1N
1L
1J
1H
19
17
15
13
#240000
0"
0F
0}
0a
02!
03!
0+!
1[!
1x
1Y
1.
#250000
1"
1F
1}
1a
1(!
12!
13!
0~
1"!
1.!
02!
1:!
1D!
1N!
1+!
0[!
03!
1z
1[!
1]
1u
1s
1q
1o
12
0x
1Q
1S
1U
1W
0Y
1*
1(
1&
1$
1x
0.
1Y
1.
#260000
0"
0F
0}
0a
0+!
#270000
1"
1+
1F
1D
1,!
1}
1a
1#!
0(!
1~
15!
0:!
1I!
0N!
1+!
0z
1{
1-!
0]
1\
0u
1t
0q
1p
1/!
16!
1E!
1J!
02
11
0Q
1R
0U
1V
1)
0(
1%
0$
#280000
0"
0F
0}
0a
0+!
#290000
1"
0+
1F
0D
0,!
1}
1a
1(!
0~
0"!
1$!
1:!
0?!
0D!
0I!
1+!
1\!
0J!
0E!
1@!
1;!
1z
0-!
10!
17!
1F!
1K!
1]
0t
0s
1q
0L!
0G!
08!
01!
0;!
0@!
1E!
1J!
12
1r
0R
0S
1U
1T
1(
0&
0%
1'
#300000
0"
0F
0}
0a
0+!
#310000
1"
1F
1}
1a
0#!
1%!
0(!
1~
1&!
1D!
1I!
1N!
1S!
1+!
0z
1|
0{
0]
1[
0\
1v
1u
1t
1s
02
01
10
1P
1Q
1R
1S
1&
1%
1$
1#
#320000
0"
0F
0}
0a
0+!
#330000
1"
1F
1}
1a
1(!
0~
1"!
0&!
0.!
05!
0:!
1?!
0D!
0I!
0N!
0S!
1+!
0\!
1z
1]
0v
0u
0t
0s
0q
0p
0o
12
0r
0P
0Q
0R
0S
0U
0V
0W
0T
0*
0)
0(
0&
0%
0$
0#
0'
#340000
0"
0F
0}
0a
0)!
1Y!
0e
0+!
0*!
0f
1w
1X!
0G
1Z
0!
1>!
1C!
1R!
1W!
1/
0]!
0^!
0a!
0b!
0i
0j
0m
0n
0M
0L
0I
0H
08
07
04
03
#350000
1"
1F
1}
1a
1#!
0(!
1)!
0Y!
1e
1~
1&!
1+!
1'!
1*!
1f
0z
1{
0Z!
0w
0X!
1G
0]
1\
0#!
0%!
00!
07!
0F!
0K!
0Z
1!
02
11
0/
0J!
1L!
0E!
1G!
06!
18!
0/!
11!
0&!
0"!
0$!
0'!
12!
0y
1Z!
13!
0X
0|
0{
0[!
0-
0[
0\
0>!
0C!
0R!
0W!
01
00
1y
1]!
1^!
1a!
1b!
1X
0x
1-
0Y
0.
1i
1j
1m
1n
1M
1L
1I
1H
18
17
14
13
#360000
0"
0F
0}
0a
02!
03!
0+!
1[!
1x
1Y
1.
#370000
1"
1+
1F
1D
1,!
1}
1a
1(!
12!
13!
0~
1"!
1.!
02!
1:!
1D!
1N!
1+!
0[!
03!
1z
1-!
1[!
1]
1u
1s
1q
1o
1/!
1;!
1E!
1O!
12
0x
1Q
1S
1U
1W
0Y
1*
1(
1&
1$
1x
0.
1Y
1.
#380000
0"
0F
0}
0a
0+!
#390000
1"
1F
1}
1a
1#!
0(!
1~
15!
0:!
1I!
0N!
1+!
0O!
1J!
0;!
16!
0z
1{
10!
1<!
1F!
1P!
0]
1\
0u
1t
0q
1p
1O!
0Q!
0E!
0G!
1;!
0=!
0/!
01!
02
11
0Q
1R
0U
1V
1)
0(
1%
0$
#400000
0"
0F
0}
0a
0+!
#410000
1"
0+
1F
0D
0,!
1}
1a
1(!
0~
0"!
1$!
1:!
0?!
0D!
0I!
1+!
1\!
0J!
1E!
1@!
0;!
1z
0-!
00!
17!
0F!
1K!
1]
0t
0s
1q
0L!
1G!
08!
11!
1;!
0@!
0E!
1J!
12
1r
0R
0S
1U
1T
1(
0&
0%
1'
#420000
0"
0F
0}
0a
0+!
#430000
1"
1F
1}
1a
0#!
1%!
0(!
1~
1&!
1D!
1I!
1N!
1S!
1+!
0z
1|
0{
0]
1[
0\
1v
1u
1t
1s
02
01
10
1P
1Q
1R
1S
1&
1%
1$
1#
#440000
0"
0F
0}
0a
0+!
#450000
1"
1F
1}
1a
1(!
0~
1"!
0&!
0.!
05!
0:!
1?!
0D!
0I!
0N!
0S!
1+!
0\!
1z
1]
0v
0u
0t
0s
0q
0p
0o
12
0r
0P
0Q
0R
0S
0U
0V
0W
0T
0*
0)
0(
0&
0%
0$
0#
0'
#460000
0"
0F
0}
0a
0)!
1Y!
0e
0+!
0*!
0f
1w
1X!
0G
1Z
0!
14!
1C!
1H!
1W!
1/
0]!
0`!
0a!
0d!
0g
0j
0k
0n
0O
0L
0K
0H
0:
07
06
03
#470000
1"
1F
1}
1a
1#!
0(!
1)!
0Y!
1e
1~
1&!
1+!
1'!
1*!
1f
0z
1{
0Z!
0w
0X!
1G
0]
1\
0#!
0%!
07!
0<!
0K!
0P!
0Z
1!
02
11
0/
0O!
1Q!
0J!
1L!
0;!
1=!
06!
18!
0&!
0"!
0$!
0'!
12!
0y
1Z!
13!
0X
0|
0{
0[!
0-
0[
0\
04!
0C!
0H!
0W!
01
00
1y
1]!
1`!
1a!
1d!
1X
0x
1-
0Y
0.
1g
1j
1k
1n
1O
1L
1K
1H
1:
17
16
13
#480000
0"
0F
0}
0a
02!
03!
0+!
1[!
1x
1Y
1.
#490000
1"
1F
1}
1a
1(!
12!
13!
0~
1"!
1.!
02!
1:!
1D!
1N!
1+!
0[!
03!
1z
1[!
1]
1u
1s
1q
1o
12
0x
1Q
1S
1U
1W
0Y
1*
1(
1&
1$
1x
0.
1Y
1.
#500000
0"
0F
0}
0a
0+!
#510000
1"
1F
1}
1a
1#!
0(!
1~
15!
0:!
1I!
0N!
1+!
0z
1{
0]
1\
0u
1t
0q
1p
02
11
0Q
1R
0U
1V
1)
0(
1%
0$
#520000
0"
0F
0}
0a
0+!
#530000
1"
1+
1F
1D
1,!
1}
1a
1(!
0~
0"!
1$!
1:!
0?!
0D!
0I!
1+!
1\!
1z
1-!
1]
0t
0s
1q
1/!
16!
1;!
1@!
12
1r
0R
0S
1U
1T
1(
0&
0%
1'
#540000
0"
0F
0}
0a
0+!
#550000
1"
0+
1F
0D
0,!
1}
1a
0#!
1%!
0(!
1~
1&!
1D!
1I!
1N!
1S!
1+!
1T!
1O!
1J!
1E!
0z
1|
0{
0-!
10!
17!
1<!
1A!
0]
1[
0\
1v
1u
1t
1s
0B!
0=!
08!
01!
0E!
0J!
0O!
0T!
02
01
10
1P
1Q
1R
1S
1&
1%
1$
1#
#560000
0"
0F
0}
0a
0+!
#570000
1"
1F
1}
1a
1(!
0~
1"!
0&!
0.!
05!
0:!
1?!
0D!
0I!
0N!
0S!
1+!
0\!
1z
1]
0v
0u
0t
0s
0q
0p
0o
12
0r
0P
0Q
0R
0S
0U
0V
0W
0T
0*
0)
0(
0&
0%
0$
0#
0'
#580000
0"
0F
0}
0a
0)!
1Y!
0e
0+!
0*!
0f
1w
1X!
0G
1Z
0!
1H!
1M!
1R!
1W!
1/
0]!
0^!
0_!
0`!
0k
0l
0m
0n
0K
0J
0I
0H
06
05
04
03
#590000
1"
1F
1}
1a
1#!
0(!
1)!
0Y!
1e
1~
1&!
1+!
1'!
1*!
1f
0z
1{
0Z!
0w
0X!
1G
0]
1\
0#!
0%!
00!
07!
0<!
0A!
0Z
1!
02
11
0/
0@!
1B!
0;!
1=!
06!
18!
0/!
11!
0&!
0"!
0$!
0'!
12!
0y
1Z!
13!
0X
0|
0{
0[!
0-
0[
0\
0H!
0M!
0R!
0W!
01
00
1y
1]!
1^!
1_!
1`!
1X
0x
1-
0Y
0.
1k
1l
1m
1n
1K
1J
1I
1H
16
15
14
13
#600000
0"
0F
0}
0a
02!
03!
0+!
1[!
1x
1Y
1.
#610000
1"
1+
1F
1D
1,!
1}
1a
1(!
12!
13!
0~
1"!
1.!
02!
1:!
1D!
1N!
1+!
0[!
03!
1z
1-!
1[!
1]
1u
1s
1q
1o
1/!
1;!
1E!
1O!
12
0x
1Q
1S
1U
1W
0Y
1*
1(
1&
1$
1x
0.
1Y
1.
#620000
0"
0F
0}
0a
0+!
#630000
1"
0+
1F
0D
0,!
1}
1a
1#!
0(!
1~
15!
0:!
1I!
0N!
1+!
0O!
1J!
0;!
16!
0z
1{
0-!
10!
1<!
1F!
1P!
0]
1\
0u
1t
0q
1p
0Q!
0G!
0=!
01!
06!
1;!
0J!
1O!
02
11
0Q
1R
0U
1V
1)
0(
1%
0$
#640000
0"
0F
0}
0a
0+!
#650000
1"
1+
1F
1D
1,!
1}
1a
1(!
0~
0"!
1$!
1:!
0?!
0D!
0I!
1+!
1\!
1z
1-!
1]
0t
0s
1q
0/!
16!
0;!
1@!
12
1r
0R
0S
1U
1T
1(
0&
0%
1'
#660000
0"
0F
0}
0a
0+!
#670000
1"
0+
1F
0D
0,!
1}
1a
0#!
1%!
0(!
1~
1&!
1D!
1I!
1N!
1S!
1+!
1T!
0O!
1J!
0E!
0z
1|
0{
0-!
00!
17!
0<!
1A!
0]
1[
0\
1v
1u
1t
1s
0B!
1=!
08!
11!
1E!
0J!
1O!
0T!
02
01
10
1P
1Q
1R
1S
1&
1%
1$
1#
#680000
0"
0F
0}
0a
0+!
#690000
1"
1F
1}
1a
1(!
0~
1"!
0&!
0.!
05!
0:!
1?!
0D!
0I!
0N!
0S!
1+!
0\!
1z
1]
0v
0u
0t
0s
0q
0p
0o
12
0r
0P
0Q
0R
0S
0U
0V
0W
0T
0*
0)
0(
0&
0%
0$
0#
0'
#700000
0"
0F
0}
0a
0)!
1Y!
0e
0+!
0*!
0f
1w
1X!
0G
1Z
0!
14!
1>!
1M!
1W!
1/
0]!
0_!
0b!
0d!
0g
0i
0l
0n
0O
0M
0J
0H
0:
08
05
03
#710000
1"
1F
1}
1a
1#!
0(!
1)!
0Y!
1e
1~
1&!
1+!
1'!
1*!
1f
0z
1{
0Z!
0w
0X!
1G
0]
1\
0#!
0%!
07!
0A!
0F!
0P!
0Z
1!
02
11
0/
0O!
1Q!
0E!
1G!
0@!
1B!
06!
18!
0&!
0"!
0$!
0'!
12!
0y
1Z!
13!
0X
0|
0{
0[!
0-
0[
0\
04!
0>!
0M!
0W!
01
00
1y
1]!
1_!
1b!
1d!
1X
0x
1-
0Y
0.
1g
1i
1l
1n
1O
1M
1J
1H
1:
18
15
13
#720000
0"
0F
0}
0a
02!
03!
0+!
1[!
1x
1Y
1.
#730000
1"
1F
1}
1a
1(!
12!
13!
0~
1"!
1.!
02!
1:!
1D!
1N!
1+!
0[!
03!
1z
1[!
1]
1u
1s
1q
1o
12
0x
1Q
1S
1U
1W
0Y
1*
1(
1&
1$
1x
0.
1Y
1.
#740000
0"
0F
0}
0a
0+!
#750000
1"
1+
1F
1D
1,!
1}
1a
1#!
0(!
1~
15!
0:!
1I!
0N!
1+!
0z
1{
1-!
0]
1\
0u
1t
0q
1p
1/!
16!
1E!
1J!
02
11
0Q
1R
0U
1V
1)
0(
1%
0$
#760000
0"
0F
0}
0a
0+!
#770000
1"
1F
1}
1a
1(!
0~
0"!
1$!
1:!
0?!
0D!
0I!
1+!
1\!
0J!
0E!
1@!
1;!
1z
10!
17!
1F!
1K!
1]
0t
0s
1q
1J!
0L!
1E!
0G!
06!
08!
0/!
01!
12
1r
0R
0S
1U
1T
1(
0&
0%
1'
#780000
0"
0F
0}
0a
0+!
#790000
1"
0+
1F
0D
0,!
1}
1a
0#!
1%!
0(!
1~
1&!
1D!
1I!
1N!
1S!
1+!
1T!
1O!
0J!
0E!
0z
1|
0{
0-!
00!
07!
1<!
1A!
0]
1[
0\
1v
1u
1t
1s
0B!
0=!
18!
11!
1E!
1J!
0O!
0T!
02
01
10
1P
1Q
1R
1S
1&
1%
1$
1#
#800000
0"
0F
0}
0a
0+!
#810000
1"
1F
1}
1a
1(!
0~
1"!
0&!
0.!
05!
0:!
1?!
0D!
0I!
0N!
0S!
1+!
0\!
1z
1]
0v
0u
0t
0s
0q
0p
0o
12
0r
0P
0Q
0R
0S
0U
0V
0W
0T
0*
0)
0(
0&
0%
0$
0#
0'
#820000
0"
0F
0}
0a
0)!
1Y!
0e
0+!
0*!
0f
1w
1X!
0G
1Z
0!
14!
19!
1R!
1W!
1/
0]!
0^!
0c!
0d!
0g
0h
0m
0n
0O
0N
0I
0H
0:
09
04
03
#830000
1"
1F
1}
1a
1#!
0(!
1)!
0Y!
1e
1~
1&!
1+!
1'!
1*!
1f
0z
1{
0Z!
0w
0X!
1G
0]
1\
0#!
0%!
0<!
0A!
0F!
0K!
0Z
1!
02
11
0/
0J!
1L!
0E!
1G!
0@!
1B!
0;!
1=!
0&!
0"!
0$!
0'!
12!
0y
1Z!
13!
0X
0|
0{
0[!
0-
0[
0\
04!
09!
0R!
0W!
01
00
1y
1]!
1^!
1c!
1d!
1X
0x
1-
0Y
0.
1g
1h
1m
1n
1O
1N
1I
1H
1:
19
14
13
#840000
0"
0F
0}
0a
02!
03!
0+!
1[!
1x
1Y
1.
#850000
1"
1+
1F
1D
1,!
1}
1a
1(!
12!
13!
0~
1"!
1.!
02!
1:!
1D!
1N!
1+!
0[!
03!
1z
1-!
1[!
1]
1u
1s
1q
1o
1/!
1;!
1E!
1O!
12
0x
1Q
1S
1U
1W
0Y
1*
1(
1&
1$
1x
0.
1Y
1.
#860000
0"
0F
0}
0a
0+!
#870000
1"
1F
1}
1a
1#!
0(!
1~
15!
0:!
1I!
0N!
1+!
0O!
1J!
0;!
16!
0z
1{
10!
1<!
1F!
1P!
0]
1\
0u
1t
0q
1p
1O!
0Q!
0E!
0G!
1;!
0=!
0/!
01!
02
11
0Q
1R
0U
1V
1)
0(
1%
0$
#880000
0"
0F
0}
0a
0+!
#890000
1"
1F
1}
1a
1(!
0~
0"!
1$!
1:!
0?!
0D!
0I!
1+!
1\!
0J!
1E!
1@!
0;!
1z
00!
17!
0F!
1K!
1]
0t
0s
1q
1J!
0L!
0E!
1G!
06!
08!
1/!
11!
12
1r
0R
0S
1U
1T
1(
0&
0%
1'
#900000
0"
0F
0}
0a
0+!
#910000
1"
0+
1F
0D
0,!
1}
1a
0#!
1%!
0(!
1~
1&!
1D!
1I!
1N!
1S!
1+!
1T!
0O!
0J!
1E!
0z
1|
0{
0-!
10!
07!
0<!
1A!
0]
1[
0\
1v
1u
1t
1s
0B!
1=!
18!
01!
0E!
1J!
1O!
0T!
02
01
10
1P
1Q
1R
1S
1&
1%
1$
1#
#920000
0"
0F
0}
0a
0+!
#930000
1"
1F
1}
1a
1(!
0~
1"!
0&!
0.!
05!
0:!
1?!
0D!
0I!
0N!
0S!
1+!
0\!
1z
1]
0v
0u
0t
0s
0q
0p
0o
12
0r
0P
0Q
0R
0S
0U
0V
0W
0T
0*
0)
0(
0&
0%
0$
0#
0'
#940000
0"
0F
0}
0a
0)!
1Y!
0e
0+!
0*!
0f
1w
1X!
0G
1Z
0!
19!
1>!
1H!
1W!
1/
0]!
0`!
0b!
0c!
0h
0i
0k
0n
0N
0M
0K
0H
09
08
06
03
#950000
1"
1F
1}
1a
1#!
0(!
1)!
0Y!
1e
1~
1&!
1+!
1'!
1*!
1f
0z
1{
0Z!
0w
0X!
1G
0]
1\
0#!
0%!
00!
0A!
0K!
0P!
0Z
1!
02
11
0/
0O!
1Q!
0J!
1L!
0@!
1B!
0/!
11!
0&!
0"!
0$!
0'!
12!
0y
1Z!
13!
0X
0|
0{
0[!
0-
0[
0\
09!
0>!
0H!
0W!
01
00
1y
1]!
1`!
1b!
1c!
1X
0x
1-
0Y
0.
1h
1i
1k
1n
1N
1M
1K
1H
19
18
16
13
#960000
0"
0F
0}
0a
02!
03!
0+!
1[!
1x
1Y
1.
