serialEncoder/simulation/qsim/serialEncoder.msim.vcd
$comment
	File created using the following command:
		vcd file serialEncoder.msim.vcd -direction
$end
$date
	Sat Nov 12 16:16:10 2022
$end
$version
	ModelSim Version 2020.1
$end
$timescale
	1ps
$end

$scope module serialencoder_vhd_vec_tst $end
$var wire 1 ! busy $end
$var wire 1 " clk $end
$var wire 1 # mIn $end
$var wire 1 $ nGRst $end
$var wire 1 % Y [7] $end
$var wire 1 & Y [6] $end
$var wire 1 ' Y [5] $end
$var wire 1 ( Y [4] $end
$var wire 1 ) Y [3] $end
$var wire 1 * Y [2] $end
$var wire 1 + Y [1] $end
$var wire 1 , Y [0] $end

$scope module i1 $end
$var wire 1 - gnd $end
$var wire 1 . vcc $end
$var wire 1 / unknown $end
$var wire 1 0 devoe $end
$var wire 1 1 devclrn $end
$var wire 1 2 devpor $end
$var wire 1 3 ww_devoe $end
$var wire 1 4 ww_devclrn $end
$var wire 1 5 ww_devpor $end
$var wire 1 6 ww_mIn $end
$var wire 1 7 ww_nGRst $end
$var wire 1 8 ww_clk $end
$var wire 1 9 ww_busy $end
$var wire 1 : ww_Y [7] $end
$var wire 1 ; ww_Y [6] $end
$var wire 1 < ww_Y [5] $end
$var wire 1 = ww_Y [4] $end
$var wire 1 > ww_Y [3] $end
$var wire 1 ? ww_Y [2] $end
$var wire 1 @ ww_Y [1] $end
$var wire 1 A ww_Y [0] $end
$var wire 1 B \clk~inputclkctrl_INCLK_bus\ [3] $end
$var wire 1 C \clk~inputclkctrl_INCLK_bus\ [2] $end
$var wire 1 D \clk~inputclkctrl_INCLK_bus\ [1] $end
$var wire 1 E \clk~inputclkctrl_INCLK_bus\ [0] $end
$var wire 1 F \busy~output_o\ $end
$var wire 1 G \Y[0]~output_o\ $end
$var wire 1 H \Y[1]~output_o\ $end
$var wire 1 I \Y[2]~output_o\ $end
$var wire 1 J \Y[3]~output_o\ $end
$var wire 1 K \Y[4]~output_o\ $end
$var wire 1 L \Y[5]~output_o\ $end
$var wire 1 M \Y[6]~output_o\ $end
$var wire 1 N \Y[7]~output_o\ $end
$var wire 1 O \clk~input_o\ $end
$var wire 1 P \clk~inputclkctrl_outclk\ $end
$var wire 1 Q \bnc|ff0|Q~0_combout\ $end
$var wire 1 R \nGRst~input_o\ $end
$var wire 1 S \bnc|ff2|Q~0_combout\ $end
$var wire 1 T \bnc|ff2|Q~q\ $end
$var wire 1 U \con|nad2|Y~0_combout\ $end
$var wire 1 V \con|nad2|Y~1_combout\ $end
$var wire 1 W \bnc|ff0|Q~q\ $end
$var wire 1 X \bnc|ff1|Q~0_combout\ $end
$var wire 1 Y \bnc|ff1|Q~q\ $end
$var wire 1 Z \con|cMem|prog~0_combout\ $end
$var wire 1 [ \mIn~input_o\ $end
$var wire 1 \ \ff0|Q~q\ $end
$var wire 1 ] \be0|ff0|Q~q\ $end
$var wire 1 ^ \be0|xor0|Y~combout\ $end
$var wire 1 _ \pr8|ff0|Q~0_combout\ $end
$var wire 1 ` \pr8|ff0|Q~q\ $end
$var wire 1 a \be1|ff0|Q~q\ $end
$var wire 1 b \be1|xor0|Y~combout\ $end
$var wire 1 c \pr8|ff1|Q~0_combout\ $end
$var wire 1 d \pr8|ff1|Q~q\ $end
$var wire 1 e \be2|ff0|Q~q\ $end
$var wire 1 f \be2|and0|Y~0_combout\ $end
$var wire 1 g \be2|xor0|Y~combout\ $end
$var wire 1 h \pr8|ff2|Q~0_combout\ $end
$var wire 1 i \pr8|ff2|Q~q\ $end
$var wire 1 j \be3|ff0|Q~q\ $end
$var wire 1 k \be3|and0|Y~0_combout\ $end
$var wire 1 l \be3|xor0|Y~combout\ $end
$var wire 1 m \pr8|ff3|Q~0_combout\ $end
$var wire 1 n \pr8|ff3|Q~q\ $end
$var wire 1 o \be4|ff0|Q~q\ $end
$var wire 1 p \be4|and0|Y~0_combout\ $end
$var wire 1 q \be4|xor0|Y~combout\ $end
$var wire 1 r \pr8|ff4|Q~0_combout\ $end
$var wire 1 s \pr8|ff4|Q~q\ $end
$var wire 1 t \be5|ff0|Q~q\ $end
$var wire 1 u \be5|and0|Y~0_combout\ $end
$var wire 1 v \be5|xor0|Y~combout\ $end
$var wire 1 w \pr8|ff5|Q~0_combout\ $end
$var wire 1 x \pr8|ff5|Q~q\ $end
$var wire 1 y \be6|ff0|Q~q\ $end
$var wire 1 z \be6|xor0|Y~combout\ $end
$var wire 1 { \pr8|ff6|Q~0_combout\ $end
$var wire 1 | \pr8|ff6|Q~q\ $end
$var wire 1 } \be7|ff0|Q~q\ $end
$var wire 1 ~ \be7|xor0|Y~combout\ $end
$var wire 1 !! \pr8|ff7|Q~0_combout\ $end
$var wire 1 "! \pr8|ff7|Q~q\ $end
$var wire 1 #! \pr8|ff2|ALT_INV_Q~q\ $end
$var wire 1 $! \pr8|ff5|ALT_INV_Q~q\ $end
$var wire 1 %! \pr8|ff3|ALT_INV_Q~q\ $end
$var wire 1 &! \pr8|ff0|ALT_INV_Q~q\ $end
$var wire 1 '! \pr8|ff7|ALT_INV_Q~q\ $end
$var wire 1 (! \pr8|ff1|ALT_INV_Q~q\ $end
$var wire 1 )! \pr8|ff6|ALT_INV_Q~q\ $end
$var wire 1 *! \con|cMem|ALT_INV_prog~0_combout\ $end
$var wire 1 +! \pr8|ff4|ALT_INV_Q~q\ $end
$var wire 1 ,! \con|nad2|ALT_INV_Y~1_combout\ $end
$upscope $end
$upscope $end
$enddefinitions $end
#0
$dumpvars
0!
0"
0#
1$
0-
1.
x/
10
11
12
13
14
15
06
17
08
09
0F
1G
1H
1I
1J
1K
1L
1M
1N
0O
0P
1Q
1R
0S
0T
0U
0V
0W
0X
0Y
1Z
0[
0\
0]
0^
1_
0`
0a
0b
1c
0d
0e
0f
0g
1h
0i
0j
0k
0l
1m
0n
0o
0p
0q
1r
0s
0t
0u
0v
1w
0x
0y
0z
1{
0|
0}
0~
1!!
0"!
1#!
1$!
1%!
1&!
1'!
1(!
1)!
0*!
1+!
1,!
1%
1&
1'
1(
1)
1*
1+
1,
1:
1;
1<
1=
1>
1?
1@
1A
1B
1C
1D
0E
$end
#10000
1"
18
1O
1E
1P
1W
1`
1d
1i
1n
1s
1x
1|
1"!
0'!
0)!
0$!
0+!
0%!
0#!
0(!
0&!
0Q
1X
0Z
1*!
0G
0H
0I
0J
0K
0L
0M
0N
0A
0@
0?
0>
0=
0<
0;
0:
1F
0,
0+
0*
0)
0(
0'
0&
0%
19
1!
#20000
0"
08
0O
0E
0P
#30000
1"
18
1O
1E
1P
0W
1Y
1Q
#40000
0"
08
0O
0E
0P
#50000
1"
18
1O
1E
1P
1W
0Q
1S
0X
#60000
0"
08
0O
0E
0P
#70000
1"
0$
18
07
0R
1O
1E
1V
0,!
1P
0W
0Y
1Q
0S
1Z
0*!
0F
09
0!
#80000
0"
08
0O
0E
0V
1,!
0P
#90000
1"
1$
18
17
1R
1O
1E
1P
1W
0Q
1X
0Z
1*!
1F
19
1!
#100000
0"
08
0O
0E
0P
#110000
1"
1#
18
16
1[
1O
1E
1P
0W
1Y
1\
1^
1b
1Q
1p
1u
1v
1q
0c
0_
0r
0w
#120000
0"
08
0O
0E
0P
#130000
1"
0#
18
06
0[
1O
1E
1P
1W
0\
1]
0`
1a
0d
1o
0s
1t
0x
1$!
1+!
1(!
1&!
0v
0q
0Q
1S
0X
0p
0u
1v
1q
1r
1w
1G
1H
1K
1L
0r
0w
1A
1@
1=
1<
1,
1+
1(
1'
#140000
0"
08
0O
0E
0P
#150000
1"
18
1O
1E
1P
1T
0W
0Y
1Q
1U
#160000
0"
08
0O
0E
0P
#170000
1"
18
1O
1E
1P
1W
0Q
1V
1X
0,!
0T
0W
0]
0a
0o
0t
0v
0q
1Q
0V
0X
0S
0U
1Z
0^
0b
0*!
1,!
1c
1_
1r
1w
0F
09
0!
#180000
0"
08
0O
0E
0P
#190000
1"
18
1O
1E
1P
1W
1`
1d
1s
1x
0$!
0+!
0(!
0&!
0Q
1X
0Z
1*!
0G
0H
0K
0L
0A
0@
0=
0<
1F
0,
0+
0(
0'
19
1!
#200000
0"
08
0O
0E
0P
#210000
1"
18
1O
1E
1P
0W
1Y
1Q
#220000
0"
08
0O
0E
0P
#230000
1"
1#
18
16
1[
1O
1E
1P
1W
1\
1^
1b
0Q
1S
0X
1f
1k
1l
1g
0c
0_
0h
0m
#240000
0"
08
0O
0E
0P
#250000
1"
0#
18
06
0[
1O
1E
1P
1T
0W
0Y
0\
1]
0`
1a
0d
1e
0i
1j
0n
1%!
1#!
1(!
1&!
0l
0g
1Q
1U
0f
0k
1l
1g
1h
1m
1G
1H
1I
1J
0h
0m
1A
1@
1?
1>
1,
1+
1*
1)
#260000
0"
08
0O
0E
0P
#270000
1"
18
1O
1E
1P
1W
0Q
1V
1X
0,!
0T
0W
0]
0a
0e
0j
0l
0g
1Q
0V
0X
0S
0U
1Z
0^
0b
0*!
1,!
1c
1_
1h
1m
0F
09
0!
#280000
0"
08
0O
0E
0P
#290000
1"
18
1O
1E
1P
1W
1`
1d
1i
1n
0%!
0#!
0(!
0&!
0Q
1X
0Z
1*!
0G
0H
0I
0J
0A
0@
0?
0>
1F
0,
0+
0*
0)
19
1!
#300000
0"
08
0O
0E
0P
#310000
1"
1#
18
16
1[
1O
1E
1P
0W
1Y
1\
1^
1b
1Q
1p
1u
1v
1q
0c
0_
0r
0w
#320000
0"
08
0O
0E
0P
#330000
1"
18
1O
1E
1P
1W
1]
0`
1a
0d
1o
0s
1t
0x
1$!
1+!
1(!
1&!
0v
0q
0b
0^
0Q
1S
0X
1f
1k
0p
0u
1v
1q
1l
1g
1_
1c
1r
1w
1G
1H
1K
1L
0h
0m
0r
0w
1A
1@
1=
1<
1,
1+
1(
1'
#340000
0"
08
0O
0E
0P
#350000
1"
0#
18
06
0[
1O
1E
1P
1T
0W
0Y
0\
0]
1`
0a
1d
1e
0i
1j
0n
1%!
1#!
0(!
0&!
0l
0g
1Q
1U
0f
0k
1l
1g
1h
1m
0G
0H
1I
1J
0h
0m
0A
0@
1?
1>
0,
0+
1*
1)
#360000
0"
08
0O
0E
0P
#370000
1"
18
1O
1E
1P
1W
0Q
1V
1X
0,!
0T
0W
0e
0j
0o
0t
0v
0q
0l
0g
1Q
0V
0X
0S
0U
1Z
0*!
1,!
1h
1m
1r
1w
0F
09
0!
#380000
0"
08
0O
0E
0P
#390000
1"
18
1O
1E
1P
1W
1i
1n
1s
1x
0$!
0+!
0%!
0#!
0Q
1X
0Z
1*!
0I
0J
0K
0L
0?
0>
0=
0<
1F
0*
0)
0(
0'
19
1!
#400000
0"
08
0O
0E
0P
#410000
1"
18
1O
1E
1P
0W
1Y
1Q
#420000
0"
08
0O
0E
0P
#430000
1"
0$
18
07
0R
1O
1E
1V
0,!
1P
0Y
0X
1Z
0*!
0F
09
0!
#440000
0"
1$
08
17
1R
0O
0E
0V
1,!
0P
#450000
1"
1#
18
16
1[
1O
1E
1P
1W
1\
1^
1z
0Q
1X
0Z
1f
1p
1*!
1q
1g
0{
0_
0h
0r
1F
19
1!
#460000
0"
08
0O
0E
0P
#470000
1"
0#
18
06
0[
1O
1E
1P
0W
1Y
0\
1]
0`
1e
0i
1o
0s
1y
0|
1)!
1+!
1#!
1&!
0q
0g
1Q
0f
0p
1q
1g
1h
1r
1G
1I
1K
1M
0h
0r
1A
1?
1=
1;
1,
1*
1(
1&
#480000
0"
08
0O
0E
0P
#490000
1"
18
1O
1E
1P
1W
0Q
1S
0X
#500000
0"
08
0O
0E
0P
#510000
1"
1#
18
16
1[
1O
1E
1P
1T
0W
0Y
1\
0z
1Q
1U
0^
1b
1f
1k
1p
1u
1~
0!!
1v
0q
1l
0g
0c
1_
1{
1h
0m
1r
0w
#520000
0"
08
0O
0E
0P
#530000
1"
0#
18
06
0[
1O
1E
1P
1W
0\
0]
1`
1a
0d
0e
1i
1j
0n
0o
1s
1t
0x
0y
1|
1}
0"!
1'!
0)!
1$!
0+!
1%!
0#!
1(!
0&!
0v
1q
0l
1g
0Q
1V
1X
0f
0k
0p
0u
0,!
1v
0q
1l
0g
0h
1m
0r
1w
0T
0W
0a
0j
0t
0}
0G
1H
0I
1J
0K
1L
0M
1N
1h
0m
1r
0w
0v
0l
1Q
0V
0X
0S
0U
1Z
0b
0~
0A
1@
0?
1>
0=
1<
0;
1:
0*!
1,!
0,
1+
0*
1)
0(
1'
0&
1%
1!!
1c
1m
1w
0F
09
0!
#540000
0"
08
0O
0E
0P
#550000
1"
1#
18
16
1[
1O
1E
1P
1W
1\
1d
1n
1x
1"!
0'!
0$!
0%!
0(!
1^
1z
0Q
1X
0Z
1f
1p
1*!
1q
1g
0{
0_
0H
0J
0L
0N
0h
0r
0@
0>
0<
0:
1F
0+
0)
0'
0%
19
1!
#560000
0"
08
0O
0E
0P
#570000
1"
0#
18
06
0[
1O
1E
1P
0W
1Y
0\
1]
0`
1e
0i
1o
0s
1y
0|
1)!
1+!
1#!
1&!
0q
0g
1Q
0f
0p
1q
1g
1h
1r
1G
1I
1K
1M
0h
0r
1A
1?
1=
1;
1,
1*
1(
1&
#580000
0"
08
0O
0E
0P
#590000
1"
18
1O
1E
1P
1W
0Q
1S
0X
#600000
0"
08
0O
0E
0P
#610000
1"
18
1O
1E
1P
1T
0W
0Y
1Q
1U
#620000
0"
08
0O
0E
0P
#630000
1"
1#
18
16
1[
1O
1E
1P
1W
1\
0^
1b
0z
1~
0Q
1V
1X
1f
1k
1p
1u
0,!
1v
0q
1l
0g
0!!
1{
0c
1_
0T
0W
0\
0]
0e
0o
0y
1h
0m
1r
0w
1q
1g
1Q
0V
0X
0S
0U
1Z
0b
0f
0k
0p
0u
0~
0*!
1,!
1!!
0v
0q
0l
0g
1c
0h
0r
1h
1m
1r
1w
0F
09
0!
#640000
0"
08
0O
0E
0P
#650000
1"
18
1O
1E
1P
1W
1\
1`
1i
1s
1|
0)!
0+!
0#!
0&!
1^
1z
0Q
1X
0Z
1f
1p
1*!
1q
1g
0{
0_
0G
0I
0K
0M
0h
0r
0A
0?
0=
0;
1F
0,
0*
0(
0&
19
1!
#660000
0"
08
0O
0E
0P
#670000
1"
0#
18
06
0[
1O
1E
1P
0W
1Y
0\
1]
0`
1e
0i
1o
0s
1y
0|
1)!
1+!
1#!
1&!
0q
0g
1Q
0f
0p
1q
1g
1h
1r
1G
1I
1K
1M
0h
0r
1A
1?
1=
1;
1,
1*
1(
1&
#680000
0"
08
0O
0E
0P
#690000
1"
1#
18
16
1[
1O
1E
1P
1W
1\
0^
1b
0Q
1S
0X
1f
1k
1l
0g
0c
1_
1h
0m
#700000
0"
08
0O
0E
0P
#710000
1"
18
1O
1E
1P
1T
0W
0Y
0]
1`
1a
0d
0e
1i
1j
0n
1%!
0#!
1(!
0&!
0l
1g
0z
1Q
1U
1^
0b
1p
1u
1~
0!!
1v
0q
1c
0_
1{
0h
1m
0G
1H
0I
1J
1r
0w
0A
1@
0?
1>
0,
1+
0*
1)
#720000
0"
0$
08
07
0R
0O
0E
0P
#730000
1"
1$
18
17
1R
1O
1E
1P
1W
1]
0`
0a
1d
1e
0i
0j
1n
0o
1s
1t
0x
0y
1|
1}
0"!
1'!
0)!
1$!
0+!
0%!
1#!
0(!
1&!
0~
1z
0v
1q
1l
0g
1b
0^
0Q
1V
1X
0,!
1_
0c
1h
0m
0r
1w
0{
1!!
0T
0W
0\
0]
0e
0t
0}
1G
0H
1I
0J
0K
1L
0M
1N
1v
1g
0z
1Q
0V
0X
0S
0U
1Z
0b
0f
0k
0p
0u
1A
0@
1?
0>
0=
1<
0;
1:
0*!
1,!
1,
0+
1*
0)
0(
1'
0&
1%
0v
0q
0l
0g
1c
1{
0h
0w
1h
1m
1r
1w
0F
09
0!
#740000
0"
08
0O
0E
0P
#750000
1"
0#
18
06
0[
1O
1E
1P
1W
1`
1i
1x
1"!
0'!
0$!
0#!
0&!
0Q
1X
0Z
1*!
0G
0I
0L
0N
0A
0?
0<
0:
1F
0,
0*
0'
0%
19
1!
#760000
0"
08
0O
0E
0P
#770000
1"
18
1O
1E
1P
0W
1Y
1Q
#780000
0"
08
0O
0E
0P
#790000
1"
18
1O
1E
1P
1W
0Q
1S
0X
#800000
0"
08
0O
0E
0P
#810000
1"
18
1O
1E
1P
1T
0W
0Y
1Q
1U
#820000
0"
08
0O
0E
0P
#830000
1"
18
1O
1E
1P
1W
0Q
1V
1X
0,!
0T
0W
1Q
0V
0X
0S
0U
1Z
0*!
1,!
0F
09
0!
#840000
0"
08
0O
0E
0P
#850000
1"
1#
18
16
1[
1O
1E
1P
1W
1\
1^
1z
0Q
1X
0Z
1f
1p
1*!
1q
1g
0{
0_
0h
0r
1F
19
1!
#860000
0"
0$
08
07
0R
0O
0E
0P
#870000
1"
0#
18
06
0[
1O
1E
1V
0,!
1P
0W
0\
0^
0z
1Q
0X
1Z
0f
0p
0`
0i
0s
0|
1)!
1+!
1#!
1&!
0*!
0q
0g
1{
1_
1h
1r
0F
1G
1I
1K
1M
09
1A
1?
1=
1;
0!
1,
1*
1(
1&
#880000
0"
08
0O
0E
0V
1,!
0P
#890000
1"
1#
18
16
1[
1O
1E
1V
0,!
1P
1`
1i
1s
1|
0)!
0+!
0#!
0&!
0G
0I
0K
0M
0A
0?
0=
0;
0,
0*
0(
0&
#900000
0"
1$
08
17
1R
0O
0E
0V
1,!
0P
#910000
1"
0#
18
06
0[
1O
1E
1P
1W
0Q
1X
0Z
1*!
1F
19
1!
#920000
0"
08
0O
0E
0P
#930000
1"
18
1O
1E
1P
0W
1Y
1Q
#940000
0"
08
0O
0E
0P
#950000
1"
1#
18
16
1[
1O
1E
1P
1W
1\
1^
1b
0Q
1S
0X
1f
1k
1l
1g
0c
0_
0h
0m
#960000
0"
08
0O
0E
0P
#970000
1"
0#
18
06
0[
1O
1E
1P
1T
0W
0Y
0\
1]
0`
1a
0d
1e
0i
1j
0n
1%!
1#!
1(!
1&!
0l
0g
1Q
1U
0f
0k
1l
1g
1h
1m
1G
1H
1I
1J
0h
0m
1A
1@
1?
1>
1,
1+
1*
1)
#980000
0"
08
0O
0E
0P
#990000
1"
18
1O
1E
1P
1W
0Q
1V
1X
0,!
0T
0W
0]
0a
0e
0j
0l
0g
1Q
0V
0X
0S
0U
1Z
0^
0b
0*!
1,!
1c
1_
1h
1m
0F
09
0!
#1000000
0"
08
0O
0E
0P
#1010000
1"
1#
18
16
1[
1O
1E
1P
1W
1\
1`
1d
1i
1n
0%!
0#!
0(!
0&!
1^
1z
0Q
1X
0Z
1f
1p
1*!
1q
1g
0{
0_
0G
0H
0I
0J
0h
0r
0A
0@
0?
0>
1F
0,
0+
0*
0)
19
1!
#1020000
0"
08
0O
0E
0P
#1030000
1"
0#
18
06
0[
1O
1E
1P
0W
1Y
0\
1]
0`
1e
0i
1o
0s
1y
0|
1)!
1+!
1#!
1&!
0q
0g
1Q
0f
0p
1q
1g
1h
1r
1G
1I
1K
1M
0h
0r
1A
1?
1=
1;
1,
1*
1(
1&
#1040000
0"
08
0O
0E
0P
#1050000
1"
1#
18
16
1[
1O
1E
1P
1W
1\
0^
1b
0Q
1S
0X
1f
1k
1l
0g
0c
1_
1h
0m
#1060000
0"
08
0O
0E
0P
#1070000
1"
0#
18
06
0[
1O
1E
1P
1T
0W
0Y
0\
0]
1`
1a
0d
0e
1i
1j
0n
1%!
0#!
1(!
0&!
0l
1g
1Q
1U
0f
0k
1l
0g
0h
1m
0G
1H
0I
1J
1h
0m
0A
1@
0?
1>
0,
1+
0*
1)
#1080000
0"
08
0O
0E
0P
#1090000
1"
1#
18
16
1[
1O
1E
1P
1W
1\
1^
0b
0z
1~
0Q
1V
1X
1f
1k
1p
1u
0,!
1v
0q
0l
1g
0!!
1{
1c
0_
0T
0W
0\
0a
0j
0o
0y
0h
1m
1r
0w
1q
1l
1Q
0V
0X
0S
0U
1Z
0^
0f
0k
0p
0u
0~
0*!
1,!
1!!
0v
0q
0l
0g
1_
0m
0r
1h
1m
1r
1w
0F
09
0!
#1100000
0"
08
0O
0E
0P
#1110000
1"
18
1O
1E
1P
1W
1\
1d
1n
1s
1|
0)!
0+!
0%!
0(!
1^
1z
0Q
1X
0Z
1f
1p
1*!
1q
1g
0{
0_
0H
0J
0K
0M
0h
0r
0@
0>
0=
0;
1F
0+
0)
0(
0&
19
1!
#1120000
0"
08
0O
0E
0P
#1130000
1"
0#
18
06
0[
1O
1E
1P
0W
1Y
0\
1]
0`
1e
0i
1o
0s
1y
0|
1)!
1+!
1#!
1&!
0q
0g
1Q
0f
0p
1q
1g
1h
1r
1G
1I
1K
1M
0h
0r
1A
1?
1=
1;
1,
1*
1(
1&
#1140000
0"
08
0O
0E
0P
#1150000
1"
1#
18
16
1[
1O
1E
1P
1W
1\
0^
1b
0Q
1S
0X
1f
1k
1l
0g
0c
1_
1h
0m
#1160000
0"
08
0O
0E
0P
#1170000
1"
0#
18
06
0[
1O
1E
1P
1T
0W
0Y
0\
0]
1`
1a
0d
0e
1i
1j
0n
1%!
0#!
1(!
0&!
0l
1g
1Q
1U
0f
0k
1l
0g
0h
1m
0G
1H
0I
1J
1h
0m
0A
1@
0?
1>
0,
1+
0*
1)
#1180000
0"
0$
08
07
0R
0O
0E
0P
#1190000
1"
18
1O
1E
1V
0,!
1P
0T
0a
0j
0o
0y
0z
0q
0l
0S
0U
1Z
0b
0*!
1c
1m
1r
1{
0F
09
0!
#1200000
0"
1$
08
17
1R
0O
0E
0V
1,!
0P
#1210000
1"
18
1O
1E
1P
1W
1d
1n
1s
1|
0)!
0+!
0%!
0(!
0Q
1X
0Z
1*!
0H
0J
0K
0M
0@
0>
0=
0;
1F
0+
0)
0(
0&
19
1!
#1220000
0"
08
0O
0E
0P
#1230000
1"
1#
18
16
1[
1O
1E
1P
0W
1Y
1\
1^
1b
1Q
1p
1u
1v
1q
0c
0_
0r
0w
#1240000
0"
08
0O
0E
0P
#1250000
1"
18
1O
1E
1P
1W
1]
0`
1a
0d
1o
0s
1t
0x
1$!
1+!
1(!
1&!
0v
0q
0b
0^
0Q
1S
0X
1f
1k
0p
0u
1v
1q
1l
1g
1_
1c
1r
1w
1G
1H
1K
1L
0h
0m
0r
0w
1A
1@
1=
1<
1,
1+
1(
1'
#1260000
0"
08
0O
0E
0P
#1270000
1"
0#
18
06
0[
1O
1E
1P
1T
0W
0Y
0\
0]
1`
0a
1d
1e
0i
1j
0n
1%!
1#!
0(!
0&!
0l
0g
1Q
1U
0f
0k
1l
1g
1h
1m
0G
0H
1I
1J
0h
0m
0A
0@
1?
1>
0,
0+
1*
1)
#1280000
0"
08
0O
0E
0P
#1290000
1"
1#
18
16
1[
1O
1E
1P
1W
1\
1^
1b
1z
1~
0Q
1V
1X
1f
1k
1p
1u
0,!
0v
0q
0l
0g
0!!
0{
0c
0_
0T
0W
0\
0e
0j
0o
0t
1h
1m
1r
1w
1v
1q
1l
1g
0z
1Q
0V
0X
0S
0U
1Z
0^
0b
0f
0k
0p
0u
0~
0*!
1,!
1!!
0v
0q
0l
0g
1c
1_
1{
0h
0m
0r
0w
1h
1m
1r
1w
0F
09
0!
#1300000
0"
08
0O
0E
0P
#1310000
1"
0#
18
06
0[
1O
1E
1P
1W
1i
1n
1s
1x
0$!
0+!
0%!
0#!
0Q
1X
0Z
1*!
0I
0J
0K
0L
0?
0>
0=
0<
1F
0*
0)
0(
0'
19
1!
#1320000
0"
08
0O
0E
0P
#1330000
1"
1#
18
16
1[
1O
1E
1P
0W
1Y
1\
1^
1b
1Q
1p
1u
1v
1q
0c
0_
0r
0w
#1340000
0"
08
0O
0E
0P
#1350000
1"
18
1O
1E
1P
1W
1]
0`
1a
0d
1o
0s
1t
0x
1$!
1+!
1(!
1&!
0v
0q
0b
0^
0Q
1S
0X
1f
1k
0p
0u
1v
1q
1l
1g
1_
1c
1r
1w
1G
1H
1K
1L
0h
0m
0r
0w
1A
1@
1=
1<
1,
1+
1(
1'
#1360000
0"
08
0O
0E
0P
#1370000
1"
0#
18
06
0[
1O
1E
1P
1T
0W
0Y
0\
0]
1`
0a
1d
1e
0i
1j
0n
1%!
1#!
0(!
0&!
0l
0g
1Q
1U
0f
0k
1l
1g
1h
1m
0G
0H
1I
1J
0h
0m
0A
0@
1?
1>
0,
0+
1*
1)
#1380000
0"
08
0O
0E
0P
#1390000
1"
18
1O
1E
1P
1W
0Q
1V
1X
0,!
0T
0W
0e
0j
0o
0t
0v
0q
0l
0g
1Q
0V
0X
0S
0U
1Z
0*!
1,!
1h
1m
1r
1w
0F
09
0!
#1400000
0"
08
0O
0E
0P
#1410000
1"
1#
18
16
1[
1O
1E
1P
1W
1\
1i
1n
1s
1x
0$!
0+!
0%!
0#!
1^
1z
0Q
1X
0Z
1f
1p
1*!
1q
1g
0{
0_
0I
0J
0K
0L
0h
0r
0?
0>
0=
0<
1F
0*
0)
0(
0'
19
1!
#1420000
0"
08
0O
0E
0P
#1430000
1"
18
1O
1E
1P
0W
1Y
1]
0`
1e
0i
1o
0s
1y
0|
1)!
1+!
1#!
1&!
0q
0g
0^
1b
1Q
0f
1u
1v
1g
0c
1_
1h
1r
1G
1I
1K
1M
0h
0w
1A
1?
1=
1;
1,
1*
1(
1&
#1440000
0"
08
0O
0E
0P
#1450000
1"
18
1O
1E
1P
1W
0]
1`
1a
0d
0o
1s
1t
0x
1$!
0+!
1(!
0&!
0v
1q
0b
1^
0Q
1S
0X
1f
1k
0p
0u
1v
0q
1l
0g
0_
1c
0r
1w
0G
1H
0K
1L
1h
0m
1r
0w
0A
1@
0=
1<
0,
1+
0(
1'
#1460000
0"
08
0O
0E
0P
#1470000
1"
0#
18
06
0[
1O
1E
1P
1T
0W
0Y
0\
1]
0`
0a
1d
0e
1i
1j
0n
1%!
0#!
0(!
1&!
0l
1g
1Q
1U
0f
0k
1l
0g
0h
1m
1G
0H
0I
1J
1h
0m
1A
0@
0?
1>
1,
0+
0*
1)
#1480000
0"
08
0O
0E
0P
#1490000
1"
1#
18
16
1[
1O
1E
1P
1W
1\
0^
1b
0z
1~
0Q
1V
1X
1f
1k
1p
1u
0,!
0v
1q
0l
1g
0!!
1{
0c
1_
0T
0W
0\
0]
0j
0t
0y
0h
1m
0r
1w
1v
1l
1Q
0V
0X
0S
0U
1Z
0b
0f
0k
0p
0u
0~
0*!
1,!
1!!
0v
0q
0l
0g
1c
0m
0w
1h
1m
1r
1w
0F
09
0!
#1500000
0"
08
0O
0E
0P
#1510000
1"
18
1O
1E
1P
1W
1\
1`
1n
1x
1|
0)!
0$!
0%!
0&!
1^
1z
0Q
1X
0Z
1f
1p
1*!
1q
1g
0{
0_
0G
0J
0L
0M
0h
0r
0A
0>
0<
0;
1F
0,
0)
0'
0&
19
1!
#1520000
0"
08
0O
0E
0P
#1530000
1"
18
1O
1E
1P
0W
1Y
1]
0`
1e
0i
1o
0s
1y
0|
1)!
1+!
1#!
1&!
0q
0g
0^
1b
1Q
0f
1u
1v
1g
0c
1_
1h
1r
1G
1I
1K
1M
0h
0w
1A
1?
1=
1;
1,
1*
1(
1&
#1540000
0"
08
0O
0E
0P
#1550000
1"
18
1O
1E
1P
1W
0]
1`
1a
0d
0o
1s
1t
0x
1$!
0+!
1(!
0&!
0v
1q
0b
1^
0Q
1S
0X
1f
1k
0p
0u
1v
0q
1l
0g
0_
1c
0r
1w
0G
1H
0K
1L
1h
0m
1r
0w
0A
1@
0=
1<
0,
1+
0(
1'
#1560000
0"
08
0O
0E
0P
#1570000
1"
0#
18
06
0[
1O
1E
1P
1T
0W
0Y
0\
1]
0`
0a
1d
0e
1i
1j
0n
1%!
0#!
0(!
1&!
0l
1g
1Q
1U
0f
0k
1l
0g
0h
1m
1G
0H
0I
1J
1h
0m
1A
0@
0?
1>
1,
0+
0*
1)
#1580000
0"
08
0O
0E
0P
#1590000
1"
18
1O
1E
1P
1W
0Q
1V
1X
0,!
0T
0W
0]
0j
0t
0y
0z
0v
0l
1Q
0V
0X
0S
0U
1Z
0^
0*!
1,!
1_
1m
1w
1{
0F
09
0!
#1600000
0"
08
0O
0E
0P
#1610000
1"
18
1O
1E
1P
1W
1`
1n
1x
1|
0)!
0$!
0%!
0&!
0Q
1X
0Z
1*!
0G
0J
0L
0M
0A
0>
0<
0;
1F
0,
0)
0'
0&
19
1!
#1620000
0"
08
0O
0E
0P
#1630000
1"
18
1O
1E
1P
0W
1Y
1Q
#1640000
0"
08
0O
0E
0P
#1650000
1"
18
1O
1E
1P
1W
0Q
1S
0X
#1660000
0"
08
0O
0E
0P
#1670000
1"
18
1O
1E
1P
1T
0W
0Y
1Q
1U
